[
  {
    "groupId": "org.powermock",
    "artifactId": "powermock-api-mockito",
    "type": "jar",
    "classifier": null,
    "version": "1.7.3",
    "scope": "test",
    "transitive": false,
    "parents": [],
    "optional": false,
    "requirement": "1.7.3"
  },
  {
    "groupId": "org.powermock",
    "artifactId": "powermock-api-mockito-common",
    "type": "jar",
    "classifier": null,
    "version": "1.7.3",
    "scope": "test",
    "transitive": true,
    "parents": [
      "org.powermock:powermock-api-mockito"
    ],
    "optional": false,
    "requirement": "1.7.3"
  },
  {
    "groupId": "org.powermock",
    "artifactId": "powermock-api-support",
    "type": "jar",
    "classifier": null,
    "version": "1.7.3",
    "scope": "test",
    "transitive": true,
    "parents": [
      "org.powermock:powermock-api-mockito",
      "org.powermock:powermock-api-mockito-common"
    ],
    "optional": false,
    "requirement": "1.7.3"
  },
  {
    "groupId": "org.powermock",
    "artifactId": "powermock-reflect",
    "type": "jar",
    "classifier": null,
    "version": "1.7.3",
    "scope": "test",
    "transitive": true,
    "parents": [
      "org.powermock:powermock-api-mockito",
      "org.powermock:powermock-api-mockito-common",
      "org.powermock:powermock-api-support"
    ],
    "optional": false,
    "requirement": "1.7.3"
  },
  {
    "groupId": "org.powermock",
    "artifactId": "powermock-core",
    "type": "jar",
    "classifier": null,
    "version": "1.7.3",
    "scope": "test",
    "transitive": true,
    "parents": [
      "org.powermock:powermock-api-mockito",
      "org.powermock:powermock-api-mockito-common",
      "org.powermock:powermock-api-support"
    ],
    "optional": false,
    "requirement": "1.7.3"
  },
  {
    "groupId": "org.javassist",
    "artifactId": "javassist",
    "type": "jar",
    "classifier": null,
    "version": "3.21.0-GA",
    "scope": "test",
    "transitive": true,
    "parents": [
      "org.powermock:powermock-api-mockito",
      "org.powermock:powermock-api-mockito-common",
      "org.powermock:powermock-api-support",
      "org.powermock:powermock-core"
    ],
    "optional": false,
    "requirement": "3.21.0-GA"
  },
  {
    "groupId": "org.mockito",
    "artifactId": "mockito-core",
    "type": "jar",
    "classifier": null,
    "version": "1.10.19",
    "scope": "test",
    "transitive": true,
    "parents": [
      "org.powermock:powermock-api-mockito"
    ],
    "optional": false,
    "requirement": "1.10.19"
  },
  {
    "groupId": "org.hamcrest",
    "artifactId": "hamcrest-core",
    "type": "jar",
    "classifier": null,
    "version": "1.1",
    "scope": "test",
    "transitive": true,
    "parents": [
      "org.powermock:powermock-api-mockito",
      "org.mockito:mockito-core"
    ],
    "optional": false,
    "requirement": "1.1"
  },
  {
    "groupId": "org.objenesis",
    "artifactId": "objenesis",
    "type": "jar",
    "classifier": null,
    "version": "2.1",
    "scope": "test",
    "transitive": true,
    "parents": [
      "org.powermock:powermock-api-mockito",
      "org.mockito:mockito-core"
    ],
    "optional": false,
    "requirement": "2.1"
  },
  {
    "groupId": "io.netty",
    "artifactId": "netty",
    "type": "jar",
    "classifier": null,
    "version": "3.9.1.Final",
    "scope": "compile",
    "transitive": false,
    "parents": [],
    "optional": false,
    "requirement": "3.9.1.Final"
  },
  {
    "groupId": "junit",
    "artifactId": "junit",
    "type": "jar",
    "classifier": null,
    "version": "3.8",
    "scope": "test",
    "transitive": false,
    "parents": [],
    "optional": false,
    "requirement": "3.8"
  },
  {
    "groupId": "org.apache.maven",
    "artifactId": "maven-artifact",
    "type": "jar",
    "classifier": null,
    "version": "3.3.9",
    "scope": "compile",
    "transitive": false,
    "parents": [],
    "optional": false,
    "requirement": "3.3.9"
  },
  {
    "groupId": "org.codehaus.plexus",
    "artifactId": "plexus-utils",
    "type": "jar",
    "classifier": null,
    "version": "3.0.22",
    "scope": "compile",
    "transitive": true,
    "parents": [
      "org.apache.maven:maven-artifact"
    ],
    "optional": false,
    "requirement": "3.0.22"
  },
  {
    "groupId": "org.apache.commons",
    "artifactId": "commons-lang3",
    "type": "jar",
    "classifier": null,
    "version": "3.4",
    "scope": "compile",
    "transitive": true,
    "parents": [
      "org.apache.maven:maven-artifact"
    ],
    "optional": false,
    "requirement": "3.4"
  },
  {
    "groupId": "com.fasterxml.jackson.core",
    "artifactId": "jackson-databind",
    "type": "jar",
    "classifier": null,
    "version": "2.9.2",
    "scope": "compile",
    "transitive": false,
    "parents": [],
    "optional": false,
    "requirement": "2.9.2"
  },
  {
    "groupId": "com.fasterxml.jackson.core",
    "artifactId": "jackson-annotations",
    "type": "jar",
    "classifier": null,
    "version": "2.9.0",
    "scope": "compile",
    "transitive": true,
    "parents": [
      "com.fasterxml.jackson.core:jackson-databind"
    ],
    "optional": false,
    "requirement": "2.9.0"
  },
  {
    "groupId": "com.fasterxml.jackson.core",
    "artifactId": "jackson-core",
    "type": "jar",
    "classifier": null,
    "version": "2.9.2",
    "scope": "compile",
    "transitive": true,
    "parents": [
      "com.fasterxml.jackson.core:jackson-databind"
    ],
    "optional": false,
    "requirement": "2.9.2"
  }
]