{
  "version": "15.0.4",
  "vulnerabilities": [
    {
      "id": "65a4dce2ef5ccb21a5a9ee51c16f9665bb05652c33b4e074c42e783f9b29347e",
      "name": "Fake fulnerability to demonstrate bug fix 357660",
      "description": "Fake fulnerability to demonstrate bug fix 357660",
      "severity": "High",
      "solution": "Upgrade to version 2.5.1.RELEASE or above.",
      "location": {
        "file": "pom.xml",
        "dependency": {
          "package": {
            "name": "org.springframework.security.oauth/spring-security-oauth-parent"
          },
          "version": "2.2.2.RELEASE"
        }
      },
      "identifiers": [
        {
          "type": "gemnasium",
          "name": "Gemnasium-88ceca18-dc55-481d-8013-a98628ac21f1",
          "value": "88ceca18-dc55-481d-8013-a98628ac21f1",
          "url": "https://gitlab.com/gitlab-org/security-products/gemnasium-db/-/blob/v1.2.142/maven/org.springframework.security.oauth/spring-security-oauth-parent/FAKE-CVE-2018-1234.yml"
        }
      ],
      "links": [
        {
          "url": "https://nvd.nist.gov/vuln/detail/fake-vuln"
        }
      ],
      "details": {
        "vulnerable_package": {
          "type": "text",
          "name": "Vulnerable Package",
          "value": "org.springframework.security.oauth/spring-security-oauth-parent:2.2.2.RELEASE"
        }
      }
    }
  ],
  "dependency_files": [
    {
      "path": "pom.xml",
      "package_manager": "maven",
      "dependencies": [
        {
          "package": {
            "name": "org.springframework.security.oauth/spring-security-oauth-parent"
          },
          "version": "2.2.2.RELEASE"
        }
      ]
    }
  ],
  "scan": {
    "analyzer": {
      "id": "gemnasium-maven",
      "name": "gemnasium-maven",
      "url": "https://gitlab.com/gitlab-org/security-products/analyzers/gemnasium",
      "vendor": {
        "name": "GitLab"
      },
      "version": "3.11.1"
    },
    "scanner": {
      "id": "gemnasium-maven",
      "name": "gemnasium-maven",
      "url": "https://gitlab.com/gitlab-org/security-products/analyzers/gemnasium",
      "vendor": {
        "name": "GitLab"
      },
      "version": "3.11.1"
    },
    "type": "dependency_scanning",
    "start_time": "2023-02-14T08:03:35",
    "end_time": "2023-02-14T08:04:21",
    "status": "success"
  }
}
