[
  {
    "name": "zstd",
    "version": "1.4.4"
  },
  {
    "name": "zlib",
    "version": "1.2.13"
  },
  {
    "name": "poco",
    "version": "1.8.1"
  },
  {
    "name": "bzip2",
    "version": "1.0.8"
  },
  {
    "name": "expat",
    "version": "2.5.0"
  },
  {
    "name": "sqlite3",
    "version": "3.40.1"
  },
  {
    "name": "libiconv",
    "version": "1.17"
  },
  {
    "name": "jerryscript",
    "version": "2.2.0"
  },
  {
    "name": "wolfssl",
    "version": "4.4.0"
  },
  {
    "name": "pcre",
    "version": "8.45"
  },
  {
    "name": "openssl",
    "version": "1.1.1t"
  },
  {
    "name": "libarchive",
    "version": "3.4.0"
  }
]
