{
  "version": "15.0.7",
  "vulnerabilities": [],
  "dependency_files": [
    {
      "path": "build.gradle",
      "package_manager": "gradle",
      "dependencies": []
    },
    {
      "path": "opentelemetry/build.gradle",
      "package_manager": "gradle",
      "dependencies": [
        {
          "package": {
            "name": "io.opentelemetry/opentelemetry-extension-kotlin"
          },
          "version": "1.36.0"
        }
      ]
    }
  ],
  "scan": {
    "analyzer": {
      "id": "gemnasium-maven",
      "name": "gemnasium-maven",
      "url": "https://gitlab.com/gitlab-org/security-products/analyzers/gemnasium",
      "vendor": {
        "name": "GitLab"
      },
      "version": "4.13.0"
    },
    "scanner": {
      "id": "gemnasium-maven",
      "name": "gemnasium-maven",
      "url": "https://gitlab.com/gitlab-org/security-products/analyzers/gemnasium",
      "vendor": {
        "name": "GitLab"
      },
      "version": "4.13.0"
    },
    "type": "dependency_scanning",
    "start_time": "2024-03-12T12:55:01",
    "end_time": "2024-03-12T12:55:27",
    "status": "success"
  }
}
