{
  "version": "0.0.1",
  "analyzer": {
    "id": "gemnasium"
  },
  "timestamp": "2022-04-04T11:05:48Z",
  "components": [
    {
      "project": {
        "path": "go-project"
      },
      "package_type": "go",
      "package_manager": "go",
      "language": "Go",
      "files": [
        {
          "type": "sbom",
          "path": "go-project/gl-sbom-go-go.cdx.json"
        },
        {
          "type": "input",
          "path": "go-project/go.sum"
        }
      ]
    },
    {
      "project": {
        "path": "javascript-project"
      },
      "package_type": "npm",
      "package_manager": "npm",
      "language": "JavaScript",
      "files": [
        {
          "type": "sbom",
          "path": "javascript-project/gl-sbom-npm-npm.cdx.json"
        },
        {
          "type": "input",
          "path": "javascript-project/package-lock.json"
        }
      ]
    },
    {
      "project": {
        "path": "ruby-project-1"
      },
      "package_type": "gem",
      "package_manager": "bundler",
      "language": "Ruby",
      "files": [
        {
          "type": "sbom",
          "path": "ruby-project-1/gl-sbom-gem-bundler.cdx.json"
        },
        {
          "type": "input",
          "path": "ruby-project-1/Gemfile.lock"
        }
      ]
    },
    {
      "project": {
        "path": "ruby-project-2"
      },
      "package_type": "gem",
      "package_manager": "bundler",
      "language": "Ruby",
      "files": [
        {
          "type": "sbom",
          "path": "ruby-project-2/gl-sbom-gem-bundler.cdx.json"
        },
        {
          "type": "input",
          "path": "ruby-project-2/Gemfile.lock"
        }
      ]
    }
  ]
}
