{
  "bomFormat": "CycloneDX",
  "specVersion": "1.4",
  "serialNumber": "urn:uuid:37b44e0d-7193-4ad3-8008-ee04df6fa8af",
  "version": 1,
  "metadata": {
    "timestamp": "2024-02-29T11:00:17Z",
    "tools": [
      {
        "vendor": "GitLab",
        "name": "Gemnasium",
        "version": "4.11.0"
      }
    ],
    "authors": [
      {
        "name": "GitLab",
        "email": "support@gitlab.com"
      }
    ],
    "properties": [
      {
        "name": "gitlab:dependency_scanning:input_file:path",
        "value": "build.gradle"
      },
      {
        "name": "gitlab:dependency_scanning:package_manager:name",
        "value": "gradle"
      },
      {
        "name": "gitlab:meta:schema_version",
        "value": "1"
      }
    ]
  },
  "components": [
    {
      "name": "io.netty/netty-all",
      "version": "4.1.0.Final",
      "purl": "pkg:maven/io.netty/netty-all@4.1.0.Final",
      "type": "library",
      "bom-ref": "pkg:maven/io.netty/netty-all@4.1.0.Final"
    },
    {
      "name": "junit/junit",
      "version": "3.8.1",
      "purl": "pkg:maven/junit/junit@3.8.1",
      "type": "library",
      "bom-ref": "pkg:maven/junit/junit@3.8.1"
    }
  ]
}
