{
  "bomFormat": "CycloneDX",
  "specVersion": "1.4",
  "serialNumber": "urn:uuid:cccf2309-f121-4250-b4f3-70e7ce58b308",
  "version": 1,
  "metadata": {
    "timestamp": "2023-01-27T00:03:35Z",
    "tools": [
      {
        "vendor": "GitLab",
        "name": "Gemnasium",
        "version": "3.12.0"
      }
    ],
    "authors": [
      {
        "name": "GitLab",
        "email": "support@gitlab.com"
      }
    ],
    "properties": [
      {
        "name": "gitlab:dependency_scanning:input_file:path",
        "value": "pnpm-lock.yaml"
      },
      {
        "name": "gitlab:dependency_scanning:package_manager:name",
        "value": "pnpm"
      },
      {
        "name": "gitlab:meta:schema_version",
        "value": "1"
      }
    ]
  },
  "components": [
    {
      "name": "asn1",
      "version": "0.1.11",
      "purl": "pkg:npm/asn1@0.1.11",
      "type": "library",
      "bom-ref": "pkg:npm/asn1@0.1.11"
    },
    {
      "name": "assert-plus",
      "version": "0.1.5",
      "purl": "pkg:npm/assert-plus@0.1.5",
      "type": "library",
      "bom-ref": "pkg:npm/assert-plus@0.1.5"
    },
    {
      "name": "async",
      "version": "0.9.2",
      "purl": "pkg:npm/async@0.9.2",
      "type": "library",
      "bom-ref": "pkg:npm/async@0.9.2"
    },
    {
      "name": "aws-sign2",
      "version": "0.5.0",
      "purl": "pkg:npm/aws-sign2@0.5.0",
      "type": "library",
      "bom-ref": "pkg:npm/aws-sign2@0.5.0"
    },
    {
      "name": "bl",
      "version": "0.9.5",
      "purl": "pkg:npm/bl@0.9.5",
      "type": "library",
      "bom-ref": "pkg:npm/bl@0.9.5"
    },
    {
      "name": "boom",
      "version": "0.4.2",
      "purl": "pkg:npm/boom@0.4.2",
      "type": "library",
      "bom-ref": "pkg:npm/boom@0.4.2"
    },
    {
      "name": "caseless",
      "version": "0.6.0",
      "purl": "pkg:npm/caseless@0.6.0",
      "type": "library",
      "bom-ref": "pkg:npm/caseless@0.6.0"
    },
    {
      "name": "combined-stream",
      "version": "0.0.7",
      "purl": "pkg:npm/combined-stream@0.0.7",
      "type": "library",
      "bom-ref": "pkg:npm/combined-stream@0.0.7"
    },
    {
      "name": "core-util-is",
      "version": "1.0.3",
      "purl": "pkg:npm/core-util-is@1.0.3",
      "type": "library",
      "bom-ref": "pkg:npm/core-util-is@1.0.3"
    },
    {
      "name": "cryptiles",
      "version": "0.2.2",
      "purl": "pkg:npm/cryptiles@0.2.2",
      "type": "library",
      "bom-ref": "pkg:npm/cryptiles@0.2.2"
    },
    {
      "name": "ctype",
      "version": "0.5.3",
      "purl": "pkg:npm/ctype@0.5.3",
      "type": "library",
      "bom-ref": "pkg:npm/ctype@0.5.3"
    },
    {
      "name": "decamelize",
      "version": "1.1.1",
      "purl": "pkg:npm/decamelize@1.1.1",
      "type": "library",
      "bom-ref": "pkg:npm/decamelize@1.1.1"
    },
    {
      "name": "delayed-stream",
      "version": "0.0.5",
      "purl": "pkg:npm/delayed-stream@0.0.5",
      "type": "library",
      "bom-ref": "pkg:npm/delayed-stream@0.0.5"
    },
    {
      "name": "forever-agent",
      "version": "0.5.2",
      "purl": "pkg:npm/forever-agent@0.5.2",
      "type": "library",
      "bom-ref": "pkg:npm/forever-agent@0.5.2"
    },
    {
      "name": "form-data",
      "version": "0.1.4",
      "purl": "pkg:npm/form-data@0.1.4",
      "type": "library",
      "bom-ref": "pkg:npm/form-data@0.1.4"
    },
    {
      "name": "hawk",
      "version": "1.1.1",
      "purl": "pkg:npm/hawk@1.1.1",
      "type": "library",
      "bom-ref": "pkg:npm/hawk@1.1.1"
    },
    {
      "name": "hoek",
      "version": "0.9.1",
      "purl": "pkg:npm/hoek@0.9.1",
      "type": "library",
      "bom-ref": "pkg:npm/hoek@0.9.1"
    },
    {
      "name": "http-signature",
      "version": "0.10.1",
      "purl": "pkg:npm/http-signature@0.10.1",
      "type": "library",
      "bom-ref": "pkg:npm/http-signature@0.10.1"
    },
    {
      "name": "inherits",
      "version": "2.0.4",
      "purl": "pkg:npm/inherits@2.0.4",
      "type": "library",
      "bom-ref": "pkg:npm/inherits@2.0.4"
    },
    {
      "name": "isarray",
      "version": "0.0.1",
      "purl": "pkg:npm/isarray@0.0.1",
      "type": "library",
      "bom-ref": "pkg:npm/isarray@0.0.1"
    },
    {
      "name": "json-stringify-safe",
      "version": "5.0.1",
      "purl": "pkg:npm/json-stringify-safe@5.0.1",
      "type": "library",
      "bom-ref": "pkg:npm/json-stringify-safe@5.0.1"
    },
    {
      "name": "lodash",
      "version": "4.17.11",
      "purl": "pkg:npm/lodash@4.17.11",
      "type": "library",
      "bom-ref": "pkg:npm/lodash@4.17.11"
    },
    {
      "name": "mime",
      "version": "1.2.11",
      "purl": "pkg:npm/mime@1.2.11",
      "type": "library",
      "bom-ref": "pkg:npm/mime@1.2.11"
    },
    {
      "name": "mime-types",
      "version": "1.0.2",
      "purl": "pkg:npm/mime-types@1.0.2",
      "type": "library",
      "bom-ref": "pkg:npm/mime-types@1.0.2"
    },
    {
      "name": "moment",
      "version": "2.19.1",
      "purl": "pkg:npm/moment@2.19.1",
      "type": "library",
      "bom-ref": "pkg:npm/moment@2.19.1"
    },
    {
      "name": "node-uuid",
      "version": "1.4.8",
      "purl": "pkg:npm/node-uuid@1.4.8",
      "type": "library",
      "bom-ref": "pkg:npm/node-uuid@1.4.8"
    },
    {
      "name": "oauth-sign",
      "version": "0.4.0",
      "purl": "pkg:npm/oauth-sign@0.4.0",
      "type": "library",
      "bom-ref": "pkg:npm/oauth-sign@0.4.0"
    },
    {
      "name": "psl",
      "version": "1.9.0",
      "purl": "pkg:npm/psl@1.9.0",
      "type": "library",
      "bom-ref": "pkg:npm/psl@1.9.0"
    },
    {
      "name": "punycode",
      "version": "2.1.1",
      "purl": "pkg:npm/punycode@2.1.1",
      "type": "library",
      "bom-ref": "pkg:npm/punycode@2.1.1"
    },
    {
      "name": "qs",
      "version": "1.2.2",
      "purl": "pkg:npm/qs@1.2.2",
      "type": "library",
      "bom-ref": "pkg:npm/qs@1.2.2"
    },
    {
      "name": "querystringify",
      "version": "2.2.0",
      "purl": "pkg:npm/querystringify@2.2.0",
      "type": "library",
      "bom-ref": "pkg:npm/querystringify@2.2.0"
    },
    {
      "name": "readable-stream",
      "version": "1.0.34",
      "purl": "pkg:npm/readable-stream@1.0.34",
      "type": "library",
      "bom-ref": "pkg:npm/readable-stream@1.0.34"
    },
    {
      "name": "request",
      "version": "2.46.0",
      "purl": "pkg:npm/request@2.46.0",
      "type": "library",
      "bom-ref": "pkg:npm/request@2.46.0"
    },
    {
      "name": "requires-port",
      "version": "1.0.0",
      "purl": "pkg:npm/requires-port@1.0.0",
      "type": "library",
      "bom-ref": "pkg:npm/requires-port@1.0.0"
    },
    {
      "name": "sntp",
      "version": "0.2.4",
      "purl": "pkg:npm/sntp@0.2.4",
      "type": "library",
      "bom-ref": "pkg:npm/sntp@0.2.4"
    },
    {
      "name": "string_decoder",
      "version": "0.10.31",
      "purl": "pkg:npm/string_decoder@0.10.31",
      "type": "library",
      "bom-ref": "pkg:npm/string_decoder@0.10.31"
    },
    {
      "name": "stringstream",
      "version": "0.0.6",
      "purl": "pkg:npm/stringstream@0.0.6",
      "type": "library",
      "bom-ref": "pkg:npm/stringstream@0.0.6"
    },
    {
      "name": "tough-cookie",
      "version": "4.1.2",
      "purl": "pkg:npm/tough-cookie@4.1.2",
      "type": "library",
      "bom-ref": "pkg:npm/tough-cookie@4.1.2"
    },
    {
      "name": "tunnel-agent",
      "version": "0.4.3",
      "purl": "pkg:npm/tunnel-agent@0.4.3",
      "type": "library",
      "bom-ref": "pkg:npm/tunnel-agent@0.4.3"
    },
    {
      "name": "universalify",
      "version": "0.2.0",
      "purl": "pkg:npm/universalify@0.2.0",
      "type": "library",
      "bom-ref": "pkg:npm/universalify@0.2.0"
    },
    {
      "name": "url-parse",
      "version": "1.5.10",
      "purl": "pkg:npm/url-parse@1.5.10",
      "type": "library",
      "bom-ref": "pkg:npm/url-parse@1.5.10"
    }
  ]
}
