[
	{
		"name": "github.com/emicklei/go-restful",
		"version": "v0.0.0-20170410110728-ff4f55a20633"
	},
	{
		"name": "github.com/emicklei/go-restful",
		"version": "v2.9.6"
	},
	{
		"name": "github.com/evanphx/json-patch",
		"version": "v4.2.0"
	},
	{
		"name": "github.com/evanphx/json-patch",
		"version": "v4.5.0"
	}
]
