{
  "bomFormat": "CycloneDX",
  "specVersion": "1.4",
  "serialNumber": "urn:uuid:2c0c0068-bfdf-4b5f-a117-173519268a95",
  "version": 1,
  "metadata": {
    "timestamp": "2022-04-22T16:37:12Z",
    "tools": [
      {
        "vendor": "GitLab",
        "name": "Gemnasium",
        "version": "not-configured"
      }
    ],
    "authors": [
      {
        "name": "GitLab",
        "email": "support@gitlab.com"
      }
    ],
    "properties": [
      {
        "name": "gitlab:dependency_scanning:input_file:path",
        "value": "poetry.lock"
      },
      {
        "name": "gitlab:dependency_scanning:package_manager:name",
        "value": "poetry"
      },
      {
        "name": "gitlab:meta:schema_version",
        "value": "1"
      }
    ]
  },
  "components": [
    {
      "name": "atomicwrites",
      "version": "1.3.0",
      "purl": "pkg:pypi/atomicwrites@1.3.0",
      "type": "library",
      "bom-ref": "pkg:pypi/atomicwrites@1.3.0"
    },
    {
      "name": "attrs",
      "version": "19.2.0",
      "purl": "pkg:pypi/attrs@19.2.0",
      "type": "library",
      "bom-ref": "pkg:pypi/attrs@19.2.0"
    },
    {
      "name": "beautifulsoup4",
      "version": "4.6.0",
      "purl": "pkg:pypi/beautifulsoup4@4.6.0",
      "type": "library",
      "bom-ref": "pkg:pypi/beautifulsoup4@4.6.0"
    },
    {
      "name": "colorama",
      "version": "0.4.1",
      "purl": "pkg:pypi/colorama@0.4.1",
      "type": "library",
      "bom-ref": "pkg:pypi/colorama@0.4.1"
    },
    {
      "name": "configparser",
      "version": "4.0.2",
      "purl": "pkg:pypi/configparser@4.0.2",
      "type": "library",
      "bom-ref": "pkg:pypi/configparser@4.0.2"
    },
    {
      "name": "contextlib2",
      "version": "0.6.0",
      "purl": "pkg:pypi/contextlib2@0.6.0",
      "type": "library",
      "bom-ref": "pkg:pypi/contextlib2@0.6.0"
    },
    {
      "name": "django",
      "version": "1.11.4",
      "purl": "pkg:pypi/django@1.11.4",
      "type": "library",
      "bom-ref": "pkg:pypi/django@1.11.4"
    },
    {
      "name": "django-contrib-comments",
      "version": "1.8.0",
      "purl": "pkg:pypi/django-contrib-comments@1.8.0",
      "type": "library",
      "bom-ref": "pkg:pypi/django-contrib-comments@1.8.0"
    },
    {
      "name": "django-js-asset",
      "version": "1.0.0",
      "purl": "pkg:pypi/django-js-asset@1.0.0",
      "type": "library",
      "bom-ref": "pkg:pypi/django-js-asset@1.0.0"
    },
    {
      "name": "django-mptt",
      "version": "0.9.0",
      "purl": "pkg:pypi/django-mptt@0.9.0",
      "type": "library",
      "bom-ref": "pkg:pypi/django-mptt@0.9.0"
    },
    {
      "name": "django-tagging",
      "version": "0.4.6",
      "purl": "pkg:pypi/django-tagging@0.4.6",
      "type": "library",
      "bom-ref": "pkg:pypi/django-tagging@0.4.6"
    },
    {
      "name": "django-xmlrpc",
      "version": "0.1.8",
      "purl": "pkg:pypi/django-xmlrpc@0.1.8",
      "type": "library",
      "bom-ref": "pkg:pypi/django-xmlrpc@0.1.8"
    },
    {
      "name": "funcsigs",
      "version": "1.0.2",
      "purl": "pkg:pypi/funcsigs@1.0.2",
      "type": "library",
      "bom-ref": "pkg:pypi/funcsigs@1.0.2"
    },
    {
      "name": "importlib-metadata",
      "version": "0.23",
      "purl": "pkg:pypi/importlib-metadata@0.23",
      "type": "library",
      "bom-ref": "pkg:pypi/importlib-metadata@0.23"
    },
    {
      "name": "more-itertools",
      "version": "5.0.0",
      "purl": "pkg:pypi/more-itertools@5.0.0",
      "type": "library",
      "bom-ref": "pkg:pypi/more-itertools@5.0.0"
    },
    {
      "name": "mots-vides",
      "version": "2015.5.11",
      "purl": "pkg:pypi/mots-vides@2015.5.11",
      "type": "library",
      "bom-ref": "pkg:pypi/mots-vides@2015.5.11"
    },
    {
      "name": "pathlib2",
      "version": "2.3.5",
      "purl": "pkg:pypi/pathlib2@2.3.5",
      "type": "library",
      "bom-ref": "pkg:pypi/pathlib2@2.3.5"
    },
    {
      "name": "pillow",
      "version": "3.3.1",
      "purl": "pkg:pypi/pillow@3.3.1",
      "type": "library",
      "bom-ref": "pkg:pypi/pillow@3.3.1"
    },
    {
      "name": "pluggy",
      "version": "0.13.0",
      "purl": "pkg:pypi/pluggy@0.13.0",
      "type": "library",
      "bom-ref": "pkg:pypi/pluggy@0.13.0"
    },
    {
      "name": "py",
      "version": "1.8.0",
      "purl": "pkg:pypi/py@1.8.0",
      "type": "library",
      "bom-ref": "pkg:pypi/py@1.8.0"
    },
    {
      "name": "pyparsing",
      "version": "2.2.0",
      "purl": "pkg:pypi/pyparsing@2.2.0",
      "type": "library",
      "bom-ref": "pkg:pypi/pyparsing@2.2.0"
    },
    {
      "name": "pytest",
      "version": "3.10.1",
      "purl": "pkg:pypi/pytest@3.10.1",
      "type": "library",
      "bom-ref": "pkg:pypi/pytest@3.10.1"
    },
    {
      "name": "pytz",
      "version": "2018.3",
      "purl": "pkg:pypi/pytz@2018.3",
      "type": "library",
      "bom-ref": "pkg:pypi/pytz@2018.3"
    },
    {
      "name": "regex",
      "version": "2018.02.08",
      "purl": "pkg:pypi/regex@2018.02.08",
      "type": "library",
      "bom-ref": "pkg:pypi/regex@2018.02.08"
    },
    {
      "name": "scandir",
      "version": "1.10.0",
      "purl": "pkg:pypi/scandir@1.10.0",
      "type": "library",
      "bom-ref": "pkg:pypi/scandir@1.10.0"
    },
    {
      "name": "six",
      "version": "1.12.0",
      "purl": "pkg:pypi/six@1.12.0",
      "type": "library",
      "bom-ref": "pkg:pypi/six@1.12.0"
    },
    {
      "name": "zipp",
      "version": "0.6.0",
      "purl": "pkg:pypi/zipp@0.6.0",
      "type": "library",
      "bom-ref": "pkg:pypi/zipp@0.6.0"
    }
  ]
}
