{
  "bomFormat": "CycloneDX",
  "specVersion": "1.4",
  "serialNumber": "urn:uuid:a03e5fa0-4193-42ad-a1d9-ee052aad7031",
  "version": 1,
  "metadata": {
    "timestamp": "2022-02-23T07:58:59Z",
    "tools": [
      {
        "vendor": "GitLab",
        "name": "Gemnasium",
        "version": "2.34.0"
      }
    ],
    "authors": [
      {
        "name": "GitLab",
        "email": "support@gitlab.com"
      }
    ],
    "properties": [
      {
        "name": "gitlab:dependency_scanning:input_file:path",
        "value": "go-project/go.sum"
      },
      {
        "name": "gitlab:dependency_scanning:package_manager:name",
        "value": "go"
      },
      {
        "name": "gitlab:meta:schema_version",
        "value": "1"
      }
    ]
  },
  "components": [
    {
      "name": "github.com/evanphx/json-patch",
      "version": "v4.2.0",
      "purl": "pkg:golang/github.com/evanphx/json-patch@v4.2.0",
      "type": "library",
      "bom-ref": "pkg:golang/github.com/evanphx/json-patch@v4.2.0"
    }
  ]
}
