[
  {
    "name": "@svgr/core",
    "version": "5.5.0"
  },
  {
    "name": "connect-history-api-fallback",
    "version": "2.0.0"
  },
  {
    "name": "semver",
    "version": "6.3.0"
  },
  {
    "name": "shebang-regex",
    "version": "3.0.0"
  },
  {
    "name": "binary-extensions",
    "version": "2.2.0"
  },
  {
    "name": "diff-sequences",
    "version": "27.5.1"
  },
  {
    "name": "execa",
    "version": "5.1.1"
  },
  {
    "name": "react-is",
    "version": "18.2.0"
  },
  {
    "name": "recursive-readdir",
    "version": "2.2.3"
  },
  {
    "name": "@rollup/plugin-babel",
    "version": "5.3.1"
  },
  {
    "name": "esrecurse",
    "version": "4.3.0"
  },
  {
    "name": "requires-port",
    "version": "1.0.0"
  },
  {
    "name": "serialize-javascript",
    "version": "6.0.1"
  },
  {
    "name": "supports-color",
    "version": "7.2.0"
  },
  {
    "name": "@jest/fake-timers",
    "version": "27.5.1"
  },
  {
    "name": "acorn-globals",
    "version": "6.0.0"
  },
  {
    "name": "camelcase",
    "version": "5.3.1"
  },
  {
    "name": "chokidar",
    "version": "3.5.3"
  },
  {
    "name": "safe-buffer",
    "version": "5.1.2"
  },
  {
    "name": "@babel/helper-skip-transparent-expression-wrappers",
    "version": "7.20.0"
  },
  {
    "name": "@leichtgewicht/ip-codec",
    "version": "2.0.4"
  },
  {
    "name": "array.prototype.reduce",
    "version": "1.0.5"
  },
  {
    "name": "filesize",
    "version": "8.0.7"
  },
  {
    "name": "postcss-nested",
    "version": "6.0.0"
  },
  {
    "name": "get-own-enumerable-property-symbols",
    "version": "3.0.2"
  },
  {
    "name": "json5",
    "version": "2.2.3"
  },
  {
    "name": "js-yaml",
    "version": "4.1.0"
  },
  {
    "name": "postcss-focus-visible",
    "version": "6.0.4"
  },
  {
    "name": "@babel/plugin-proposal-json-strings",
    "version": "7.18.6"
  },
  {
    "name": "@sinonjs/fake-timers",
    "version": "8.1.0"
  },
  {
    "name": "@types/retry",
    "version": "0.12.0"
  },
  {
    "name": "@webassemblyjs/helper-wasm-bytecode",
    "version": "1.11.1"
  },
  {
    "name": "aproba",
    "version": "2.0.0"
  },
  {
    "name": "doctrine",
    "version": "2.1.0"
  },
  {
    "name": "@csstools/postcss-nested-calc",
    "version": "1.0.0"
  },
  {
    "name": "@svgr/babel-plugin-remove-jsx-empty-expression",
    "version": "5.0.1"
  },
  {
    "name": "natural-compare-lite",
    "version": "1.4.0"
  },
  {
    "name": "react",
    "version": "18.2.0"
  },
  {
    "name": "parseurl",
    "version": "1.3.3"
  },
  {
    "name": "setprototypeof",
    "version": "1.2.0"
  },
  {
    "name": "@babel/core",
    "version": "7.21.0"
  },
  {
    "name": "@babel/plugin-transform-property-literals",
    "version": "7.18.6"
  },
  {
    "name": "has-flag",
    "version": "3.0.0"
  },
  {
    "name": "is-extglob",
    "version": "2.1.1"
  },
  {
    "name": "jest-validate",
    "version": "27.5.1"
  },
  {
    "name": "minipass-fetch",
    "version": "2.1.2"
  },
  {
    "name": "@istanbuljs/schema",
    "version": "0.1.3"
  },
  {
    "name": "@types/express-serve-static-core",
    "version": "4.17.33"
  },
  {
    "name": "http-proxy-agent",
    "version": "5.0.0"
  },
  {
    "name": "jsesc",
    "version": "0.5.0"
  },
  {
    "name": "url-parse",
    "version": "1.5.10"
  },
  {
    "name": "@babel/helper-create-class-features-plugin",
    "version": "7.21.0"
  },
  {
    "name": "@tootallnate/once",
    "version": "1.1.2"
  },
  {
    "name": "@types/prop-types",
    "version": "15.7.5"
  },
  {
    "name": "indent-string",
    "version": "4.0.0"
  },
  {
    "name": "object.entries",
    "version": "1.1.6"
  },
  {
    "name": "regexp.prototype.flags",
    "version": "1.4.3"
  },
  {
    "name": "@babel/helper-environment-visitor",
    "version": "7.18.9"
  },
  {
    "name": "babel-plugin-istanbul",
    "version": "6.1.1"
  },
  {
    "name": "setprototypeof",
    "version": "1.1.0"
  },
  {
    "name": "universalify",
    "version": "0.2.0"
  },
  {
    "name": "which",
    "version": "1.3.1"
  },
  {
    "name": "qs",
    "version": "6.11.0"
  },
  {
    "name": "rollup",
    "version": "2.79.1"
  },
  {
    "name": "@babel/helper-define-polyfill-provider",
    "version": "0.3.3"
  },
  {
    "name": "decimal.js",
    "version": "10.4.3"
  },
  {
    "name": "gzip-size",
    "version": "6.0.0"
  },
  {
    "name": "lodash",
    "version": "4.17.21"
  },
  {
    "name": "postcss-custom-properties",
    "version": "12.1.11"
  },
  {
    "name": "postcss-lab-function",
    "version": "4.2.1"
  },
  {
    "name": "@babel/plugin-transform-modules-commonjs",
    "version": "7.21.2"
  },
  {
    "name": "@types/mime",
    "version": "3.0.1"
  },
  {
    "name": "grapheme-splitter",
    "version": "1.0.4"
  },
  {
    "name": "jest-resolve",
    "version": "27.5.1"
  },
  {
    "name": "p-locate",
    "version": "4.1.0"
  },
  {
    "name": "tar",
    "version": "6.1.13"
  },
  {
    "name": "readable-stream",
    "version": "3.6.1"
  },
  {
    "name": "tr46",
    "version": "1.0.1"
  },
  {
    "name": "@babel/plugin-transform-computed-properties",
    "version": "7.20.7"
  },
  {
    "name": "bser",
    "version": "2.1.1"
  },
  {
    "name": "cliui",
    "version": "7.0.4"
  },
  {
    "name": "minipass-pipeline",
    "version": "1.2.4"
  },
  {
    "name": "object.values",
    "version": "1.1.6"
  },
  {
    "name": "postcss-modules-local-by-default",
    "version": "4.0.0"
  },
  {
    "name": "type-fest",
    "version": "0.16.0"
  },
  {
    "name": "ansi-styles",
    "version": "5.2.0"
  },
  {
    "name": "eslint-import-resolver-node",
    "version": "0.3.7"
  },
  {
    "name": "postcss-double-position-gradients",
    "version": "3.1.2"
  },
  {
    "name": "source-map-support",
    "version": "0.5.21"
  },
  {
    "name": "stringify-object",
    "version": "3.3.0"
  },
  {
    "name": "@jest/test-result",
    "version": "28.1.3"
  },
  {
    "name": "react-refresh",
    "version": "0.11.0"
  },
  {
    "name": "@eslint/eslintrc",
    "version": "2.0.0"
  },
  {
    "name": "@svgr/babel-plugin-remove-jsx-attribute",
    "version": "5.4.0"
  },
  {
    "name": "encodeurl",
    "version": "1.0.2"
  },
  {
    "name": "statuses",
    "version": "1.5.0"
  },
  {
    "name": "@babel/helpers",
    "version": "7.21.0"
  },
  {
    "name": "@svgr/babel-plugin-svg-em-dimensions",
    "version": "5.4.0"
  },
  {
    "name": "dns-packet",
    "version": "5.4.0"
  },
  {
    "name": "normalize-url",
    "version": "6.1.0"
  },
  {
    "name": "nwsapi",
    "version": "2.2.2"
  },
  {
    "name": "postcss-import",
    "version": "14.1.0"
  },
  {
    "name": "w3c-hr-time",
    "version": "1.0.2"
  },
  {
    "name": "@gar/promisify",
    "version": "1.1.3"
  },
  {
    "name": "@jest/expect-utils",
    "version": "29.4.3"
  },
  {
    "name": "@jest/test-sequencer",
    "version": "27.5.1"
  },
  {
    "name": "bytes",
    "version": "3.0.0"
  },
  {
    "name": "get-intrinsic",
    "version": "1.2.0"
  },
  {
    "name": "source-map",
    "version": "0.6.1"
  },
  {
    "name": "@npmcli/move-file",
    "version": "2.0.1"
  },
  {
    "name": "isarray",
    "version": "1.0.0"
  },
  {
    "name": "string.prototype.trimstart",
    "version": "1.0.6"
  },
  {
    "name": "write-file-atomic",
    "version": "3.0.3"
  },
  {
    "name": "is-fullwidth-code-point",
    "version": "3.0.0"
  },
  {
    "name": "@babel/plugin-transform-unicode-regex",
    "version": "7.18.6"
  },
  {
    "name": "csso",
    "version": "4.2.0"
  },
  {
    "name": "onetime",
    "version": "5.1.2"
  },
  {
    "name": "pretty-error",
    "version": "4.0.0"
  },
  {
    "name": "webpack-sources",
    "version": "2.3.1"
  },
  {
    "name": "@xtuc/ieee754",
    "version": "1.2.0"
  },
  {
    "name": "json-stable-stringify-without-jsonify",
    "version": "1.0.1"
  },
  {
    "name": "p-locate",
    "version": "5.0.0"
  },
  {
    "name": "serve-static",
    "version": "1.15.0"
  },
  {
    "name": "@babel/plugin-proposal-class-static-block",
    "version": "7.21.0"
  },
  {
    "name": "@jest/transform",
    "version": "27.5.1"
  },
  {
    "name": "@nodelib/fs.stat",
    "version": "2.0.5"
  },
  {
    "name": "is-arguments",
    "version": "1.1.1"
  },
  {
    "name": "jest-cli",
    "version": "27.5.1"
  },
  {
    "name": "source-map-js",
    "version": "1.0.2"
  },
  {
    "name": "jest-runtime",
    "version": "27.5.1"
  },
  {
    "name": "json-schema-traverse",
    "version": "0.4.1"
  },
  {
    "name": "@babel/template",
    "version": "7.20.7"
  },
  {
    "name": "@types/jest",
    "version": "29.4.0"
  },
  {
    "name": "@types/node",
    "version": "18.14.5"
  },
  {
    "name": "postcss-discard-comments",
    "version": "5.1.2"
  },
  {
    "name": "@babel/helper-simple-access",
    "version": "7.20.2"
  },
  {
    "name": "detective",
    "version": "5.2.1"
  },
  {
    "name": "magic-string",
    "version": "0.25.9"
  },
  {
    "name": "mime-types",
    "version": "2.1.35"
  },
  {
    "name": "socks",
    "version": "2.7.1"
  },
  {
    "name": "send",
    "version": "0.18.0"
  },
  {
    "name": "stack-utils",
    "version": "2.0.6"
  },
  {
    "name": "acorn-node",
    "version": "1.8.2"
  },
  {
    "name": "cosmiconfig",
    "version": "7.1.0"
  },
  {
    "name": "http-cache-semantics",
    "version": "4.1.1"
  },
  {
    "name": "locate-path",
    "version": "5.0.0"
  },
  {
    "name": "nth-check",
    "version": "2.1.1"
  },
  {
    "name": "prompts",
    "version": "2.4.2"
  },
  {
    "name": "uri-js",
    "version": "4.4.1"
  },
  {
    "name": "xml-name-validator",
    "version": "3.0.0"
  },
  {
    "name": "@rushstack/eslint-patch",
    "version": "1.2.0"
  },
  {
    "name": "jest",
    "version": "27.5.1"
  },
  {
    "name": "normalize-path",
    "version": "3.0.0"
  },
  {
    "name": "pkg-dir",
    "version": "4.2.0"
  },
  {
    "name": "workbox-broadcast-update",
    "version": "6.5.4"
  },
  {
    "name": "@typescript-eslint/parser",
    "version": "5.54.0"
  },
  {
    "name": "ipaddr.js",
    "version": "2.0.1"
  },
  {
    "name": "path-exists",
    "version": "4.0.0"
  },
  {
    "name": "postcss-discard-empty",
    "version": "5.1.1"
  },
  {
    "name": "raw-body",
    "version": "2.5.1"
  },
  {
    "name": "regjsparser",
    "version": "0.9.1"
  },
  {
    "name": "is-obj",
    "version": "1.0.1"
  },
  {
    "name": "wbuf",
    "version": "1.7.3"
  },
  {
    "name": "@babel/plugin-transform-react-pure-annotations",
    "version": "7.18.6"
  },
  {
    "name": "@typescript-eslint/eslint-plugin",
    "version": "5.54.0"
  },
  {
    "name": "minimalistic-assert",
    "version": "1.0.1"
  },
  {
    "name": "string_decoder",
    "version": "1.3.0"
  },
  {
    "name": "webidl-conversions",
    "version": "4.0.2"
  },
  {
    "name": "babel-jest",
    "version": "27.5.1"
  },
  {
    "name": "graceful-fs",
    "version": "4.2.10"
  },
  {
    "name": "http-deceiver",
    "version": "1.2.7"
  },
  {
    "name": "postcss-normalize-string",
    "version": "5.1.0"
  },
  {
    "name": "ssri",
    "version": "9.0.1"
  },
  {
    "name": "terser",
    "version": "5.16.5"
  },
  {
    "name": "boolbase",
    "version": "1.0.0"
  },
  {
    "name": "clean-css",
    "version": "5.3.2"
  },
  {
    "name": "eslint-scope",
    "version": "7.1.1"
  },
  {
    "name": "fast-glob",
    "version": "3.2.12"
  },
  {
    "name": "glob",
    "version": "8.1.0"
  },
  {
    "name": "levn",
    "version": "0.4.1"
  },
  {
    "name": "@svgr/babel-preset",
    "version": "5.5.0"
  },
  {
    "name": "check-types",
    "version": "11.2.2"
  },
  {
    "name": "eslint-visitor-keys",
    "version": "2.1.0"
  },
  {
    "name": "has-bigints",
    "version": "1.0.2"
  },
  {
    "name": "postcss-load-config",
    "version": "3.1.4"
  },
  {
    "name": "infer-owner",
    "version": "1.0.4"
  },
  {
    "name": "lru-cache",
    "version": "6.0.0"
  },
  {
    "name": "p-limit",
    "version": "2.3.0"
  },
  {
    "name": "postcss-clamp",
    "version": "4.1.0"
  },
  {
    "name": "selfsigned",
    "version": "2.1.1"
  },
  {
    "name": "@xtuc/long",
    "version": "4.2.2"
  },
  {
    "name": "file-entry-cache",
    "version": "6.0.1"
  },
  {
    "name": "jest-message-util",
    "version": "28.1.3"
  },
  {
    "name": "postcss-replace-overflow-wrap",
    "version": "4.0.0"
  },
  {
    "name": "type-detect",
    "version": "4.0.8"
  },
  {
    "name": "@babel/plugin-transform-named-capturing-groups-regex",
    "version": "7.20.5"
  },
  {
    "name": "@humanwhocodes/config-array",
    "version": "0.11.8"
  },
  {
    "name": "ajv-keywords",
    "version": "3.5.2"
  },
  {
    "name": "ini",
    "version": "1.3.8"
  },
  {
    "name": "pkg-up",
    "version": "3.1.0"
  },
  {
    "name": "schema-utils",
    "version": "3.1.1"
  },
  {
    "name": "@webassemblyjs/ieee754",
    "version": "1.11.1"
  },
  {
    "name": "https-proxy-agent",
    "version": "5.0.1"
  },
  {
    "name": "no-case",
    "version": "3.0.4"
  },
  {
    "name": "@rollup/plugin-replace",
    "version": "2.4.2"
  },
  {
    "name": "@testing-library/react",
    "version": "13.4.0"
  },
  {
    "name": "detect-newline",
    "version": "3.1.0"
  },
  {
    "name": "which-typed-array",
    "version": "1.1.9"
  },
  {
    "name": "@babel/helper-explode-assignable-expression",
    "version": "7.18.6"
  },
  {
    "name": "@babel/plugin-syntax-class-static-block",
    "version": "7.14.5"
  },
  {
    "name": "@csstools/postcss-progressive-custom-properties",
    "version": "1.3.0"
  },
  {
    "name": "@webassemblyjs/helper-buffer",
    "version": "1.11.1"
  },
  {
    "name": "jsonfile",
    "version": "6.1.0"
  },
  {
    "name": "renderkid",
    "version": "3.0.0"
  },
  {
    "name": "webpack",
    "version": "5.75.0"
  },
  {
    "name": "workbox-navigation-preload",
    "version": "6.5.4"
  },
  {
    "name": "ansi-styles",
    "version": "3.2.1"
  },
  {
    "name": "colord",
    "version": "2.9.3"
  },
  {
    "name": "test-exclude",
    "version": "6.0.0"
  },
  {
    "name": "style-loader",
    "version": "3.3.1"
  },
  {
    "name": "@babel/runtime",
    "version": "7.21.0"
  },
  {
    "name": "@jridgewell/trace-mapping",
    "version": "0.3.17"
  },
  {
    "name": "@svgr/babel-plugin-replace-jsx-attribute-value",
    "version": "5.0.1"
  },
  {
    "name": "@types/q",
    "version": "1.5.5"
  },
  {
    "name": "brace-expansion",
    "version": "2.0.1"
  },
  {
    "name": "is-callable",
    "version": "1.2.7"
  },
  {
    "name": "whatwg-fetch",
    "version": "3.6.2"
  },
  {
    "name": "@babel/compat-data",
    "version": "7.21.0"
  },
  {
    "name": "@babel/plugin-proposal-private-property-in-object",
    "version": "7.21.0"
  },
  {
    "name": "bfj",
    "version": "7.0.2"
  },
  {
    "name": "merge2",
    "version": "1.4.1"
  },
  {
    "name": "pretty-format",
    "version": "27.5.1"
  },
  {
    "name": "@types/istanbul-reports",
    "version": "3.0.1"
  },
  {
    "name": "async",
    "version": "3.2.4"
  },
  {
    "name": "babel-plugin-macros",
    "version": "3.1.0"
  },
  {
    "name": "@babel/helper-module-transforms",
    "version": "7.21.2"
  },
  {
    "name": "@babel/plugin-proposal-class-properties",
    "version": "7.18.6"
  },
  {
    "name": "@rollup/pluginutils",
    "version": "3.1.0"
  },
  {
    "name": "fast-deep-equal",
    "version": "3.1.3"
  },
  {
    "name": "strip-ansi",
    "version": "6.0.1"
  },
  {
    "name": "@babel/plugin-syntax-dynamic-import",
    "version": "7.8.3"
  },
  {
    "name": "concat-map",
    "version": "0.0.1"
  },
  {
    "name": "ip",
    "version": "2.0.0"
  },
  {
    "name": "jest-runner",
    "version": "27.5.1"
  },
  {
    "name": "serialize-javascript",
    "version": "4.0.0"
  },
  {
    "name": "tough-cookie",
    "version": "4.1.2"
  },
  {
    "name": "typedarray-to-buffer",
    "version": "3.1.5"
  },
  {
    "name": "@jest/environment",
    "version": "27.5.1"
  },
  {
    "name": "dlv",
    "version": "1.1.3"
  },
  {
    "name": "postcss-custom-selectors",
    "version": "6.0.3"
  },
  {
    "name": "postcss-flexbugs-fixes",
    "version": "5.0.2"
  },
  {
    "name": "punycode",
    "version": "2.3.0"
  },
  {
    "name": "uuid",
    "version": "8.3.2"
  },
  {
    "name": "yallist",
    "version": "3.1.1"
  },
  {
    "name": "p-retry",
    "version": "4.6.2"
  },
  {
    "name": "postcss-js",
    "version": "4.0.1"
  },
  {
    "name": "@babel/helper-plugin-utils",
    "version": "7.20.2"
  },
  {
    "name": "@babel/plugin-transform-async-to-generator",
    "version": "7.20.7"
  },
  {
    "name": "array.prototype.tosorted",
    "version": "1.1.1"
  },
  {
    "name": "color-name",
    "version": "1.1.3"
  },
  {
    "name": "is-lambda",
    "version": "1.0.1"
  },
  {
    "name": "jest-environment-node",
    "version": "27.5.1"
  },
  {
    "name": "ws",
    "version": "8.12.1"
  },
  {
    "name": "@babel/helper-validator-identifier",
    "version": "7.19.1"
  },
  {
    "name": "@jridgewell/gen-mapping",
    "version": "0.3.2"
  },
  {
    "name": "is-generator-fn",
    "version": "2.1.0"
  },
  {
    "name": "jest-resolve-dependencies",
    "version": "27.5.1"
  },
  {
    "name": "path-key",
    "version": "3.1.1"
  },
  {
    "name": "stackframe",
    "version": "1.3.4"
  },
  {
    "name": "@babel/plugin-bugfix-v8-spread-parameters-in-optional-chaining",
    "version": "7.20.7"
  },
  {
    "name": "@svgr/babel-plugin-add-jsx-attribute",
    "version": "5.4.0"
  },
  {
    "name": "@webassemblyjs/helper-api-error",
    "version": "1.11.1"
  },
  {
    "name": "depd",
    "version": "1.1.2"
  },
  {
    "name": "has-unicode",
    "version": "2.0.1"
  },
  {
    "name": "p-limit",
    "version": "3.1.0"
  },
  {
    "name": "axe-core",
    "version": "4.6.3"
  },
  {
    "name": "minipass-collect",
    "version": "1.0.2"
  },
  {
    "name": "negotiator",
    "version": "0.6.3"
  },
  {
    "name": "postcss-reduce-initial",
    "version": "5.1.2"
  },
  {
    "name": "toidentifier",
    "version": "1.0.1"
  },
  {
    "name": "workbox-precaching",
    "version": "6.5.4"
  },
  {
    "name": "@babel/helper-compilation-targets",
    "version": "7.20.7"
  },
  {
    "name": "@babel/plugin-transform-arrow-functions",
    "version": "7.20.7"
  },
  {
    "name": "@jest/types",
    "version": "27.5.1"
  },
  {
    "name": "compression",
    "version": "1.7.4"
  },
  {
    "name": "@typescript-eslint/type-utils",
    "version": "5.54.0"
  },
  {
    "name": "glob-parent",
    "version": "5.1.2"
  },
  {
    "name": "is-symbol",
    "version": "1.0.4"
  },
  {
    "name": "isexe",
    "version": "2.0.0"
  },
  {
    "name": "@jest/globals",
    "version": "27.5.1"
  },
  {
    "name": "@types/eslint-scope",
    "version": "3.7.4"
  },
  {
    "name": "css-select-base-adapter",
    "version": "0.1.1"
  },
  {
    "name": "forwarded",
    "version": "0.2.0"
  },
  {
    "name": "postcss-discard-overridden",
    "version": "5.1.0"
  },
  {
    "name": "prelude-ls",
    "version": "1.2.1"
  },
  {
    "name": "compressible",
    "version": "2.0.18"
  },
  {
    "name": "http-errors",
    "version": "1.6.3"
  },
  {
    "name": "postcss-modules-values",
    "version": "4.0.0"
  },
  {
    "name": "queue-microtask",
    "version": "1.2.3"
  },
  {
    "name": "string.prototype.matchall",
    "version": "4.0.8"
  },
  {
    "name": "@types/react-dom",
    "version": "18.0.11"
  },
  {
    "name": "internal-slot",
    "version": "1.0.5"
  },
  {
    "name": "postcss-merge-rules",
    "version": "5.1.4"
  },
  {
    "name": "shell-quote",
    "version": "1.8.0"
  },
  {
    "name": "@babel/plugin-proposal-numeric-separator",
    "version": "7.18.6"
  },
  {
    "name": "@babel/plugin-transform-modules-umd",
    "version": "7.18.6"
  },
  {
    "name": "@types/sockjs",
    "version": "0.3.33"
  },
  {
    "name": "jest-util",
    "version": "28.1.3"
  },
  {
    "name": "optionator",
    "version": "0.9.1"
  },
  {
    "name": "which",
    "version": "2.0.2"
  },
  {
    "name": "@babel/preset-react",
    "version": "7.18.6"
  },
  {
    "name": "body-parser",
    "version": "1.20.1"
  },
  {
    "name": "chownr",
    "version": "2.0.0"
  },
  {
    "name": "fs-minipass",
    "version": "2.1.0"
  },
  {
    "name": "is-number-object",
    "version": "1.0.7"
  },
  {
    "name": "natural-compare",
    "version": "1.4.0"
  },
  {
    "name": "array-union",
    "version": "2.1.0"
  },
  {
    "name": "asynckit",
    "version": "0.4.0"
  },
  {
    "name": "quick-lru",
    "version": "5.1.1"
  },
  {
    "name": "tsutils",
    "version": "3.21.0"
  },
  {
    "name": "cross-spawn",
    "version": "7.0.3"
  },
  {
    "name": "jake",
    "version": "10.8.5"
  },
  {
    "name": "querystringify",
    "version": "2.2.0"
  },
  {
    "name": "text-table",
    "version": "0.2.0"
  },
  {
    "name": "type-fest",
    "version": "0.20.2"
  },
  {
    "name": "@csstools/postcss-text-decoration-shorthand",
    "version": "1.0.0"
  },
  {
    "name": "abab",
    "version": "2.0.6"
  },
  {
    "name": "sax",
    "version": "1.2.4"
  },
  {
    "name": "workbox-expiration",
    "version": "6.5.4"
  },
  {
    "name": "agent-base",
    "version": "6.0.2"
  },
  {
    "name": "postcss-merge-longhand",
    "version": "5.1.7"
  },
  {
    "name": "@bcoe/v8-coverage",
    "version": "0.2.3"
  },
  {
    "name": "@types/express",
    "version": "4.17.17"
  },
  {
    "name": "aggregate-error",
    "version": "3.1.0"
  },
  {
    "name": "enhanced-resolve",
    "version": "5.12.0"
  },
  {
    "name": "is-negative-zero",
    "version": "2.0.2"
  },
  {
    "name": "postcss-minify-selectors",
    "version": "5.2.1"
  },
  {
    "name": "@babel/plugin-transform-duplicate-keys",
    "version": "7.18.9"
  },
  {
    "name": "mdn-data",
    "version": "2.0.4"
  },
  {
    "name": "read-cache",
    "version": "1.0.0"
  },
  {
    "name": "spdy",
    "version": "4.0.2"
  },
  {
    "name": "jest-message-util",
    "version": "27.5.1"
  },
  {
    "name": "merge-stream",
    "version": "2.0.0"
  },
  {
    "name": "mkdirp",
    "version": "0.5.6"
  },
  {
    "name": "acorn-walk",
    "version": "7.2.0"
  },
  {
    "name": "acorn",
    "version": "7.4.1"
  },
  {
    "name": "acorn",
    "version": "8.8.2"
  },
  {
    "name": "destroy",
    "version": "1.2.0"
  },
  {
    "name": "jest-mock",
    "version": "27.5.1"
  },
  {
    "name": "websocket-driver",
    "version": "0.7.4"
  },
  {
    "name": "node-releases",
    "version": "2.0.10"
  },
  {
    "name": "string-width",
    "version": "4.2.3"
  },
  {
    "name": "svgo",
    "version": "1.3.2"
  },
  {
    "name": "tslib",
    "version": "1.14.1"
  },
  {
    "name": "@types/eslint",
    "version": "8.21.1"
  },
  {
    "name": "@types/estree",
    "version": "0.0.39"
  },
  {
    "name": "dom-serializer",
    "version": "1.4.1"
  },
  {
    "name": "he",
    "version": "1.2.0"
  },
  {
    "name": "is-weakset",
    "version": "2.0.2"
  },
  {
    "name": "mini-css-extract-plugin",
    "version": "2.7.2"
  },
  {
    "name": "workbox-window",
    "version": "6.5.4"
  },
  {
    "name": "core-js-compat",
    "version": "3.29.0"
  },
  {
    "name": "expect",
    "version": "27.5.1"
  },
  {
    "name": "makeerror",
    "version": "1.0.12"
  },
  {
    "name": "dns-equal",
    "version": "1.0.0"
  },
  {
    "name": "es-to-primitive",
    "version": "1.2.1"
  },
  {
    "name": "@babel/plugin-syntax-optional-catch-binding",
    "version": "7.8.3"
  },
  {
    "name": "@surma/rollup-plugin-off-main-thread",
    "version": "2.2.3"
  },
  {
    "name": "@types/babel__traverse",
    "version": "7.18.3"
  },
  {
    "name": "@types/yargs",
    "version": "16.0.5"
  },
  {
    "name": "babel-preset-jest",
    "version": "27.5.1"
  },
  {
    "name": "caniuse-lite",
    "version": "1.0.30001460"
  },
  {
    "name": "unique-filename",
    "version": "2.0.1"
  },
  {
    "name": "duplexer",
    "version": "0.1.2"
  },
  {
    "name": "exit",
    "version": "0.1.2"
  },
  {
    "name": "gauge",
    "version": "4.0.4"
  },
  {
    "name": "mime",
    "version": "1.6.0"
  },
  {
    "name": "available-typed-arrays",
    "version": "1.0.5"
  },
  {
    "name": "css-tree",
    "version": "1.1.3"
  },
  {
    "name": "@babel/plugin-proposal-unicode-property-regex",
    "version": "7.18.6"
  },
  {
    "name": "array-includes",
    "version": "3.1.6"
  },
  {
    "name": "jest-watcher",
    "version": "28.1.3"
  },
  {
    "name": "@babel/plugin-syntax-json-strings",
    "version": "7.8.3"
  },
  {
    "name": "@webassemblyjs/leb128",
    "version": "1.11.1"
  },
  {
    "name": "fork-ts-checker-webpack-plugin",
    "version": "6.5.2"
  },
  {
    "name": "postcss-convert-values",
    "version": "5.1.3"
  },
  {
    "name": "postcss-normalize-display-values",
    "version": "5.1.0"
  },
  {
    "name": "schema-utils",
    "version": "2.7.0"
  },
  {
    "name": "@babel/plugin-transform-object-super",
    "version": "7.18.6"
  },
  {
    "name": "encoding",
    "version": "0.1.13"
  },
  {
    "name": "file-loader",
    "version": "6.2.0"
  },
  {
    "name": "postcss-minify-font-values",
    "version": "5.1.0"
  },
  {
    "name": "postcss-normalize-positions",
    "version": "5.1.1"
  },
  {
    "name": "@testing-library/user-event",
    "version": "13.5.0"
  },
  {
    "name": "has-proto",
    "version": "1.0.1"
  },
  {
    "name": "is-string",
    "version": "1.0.7"
  },
  {
    "name": "@typescript-eslint/visitor-keys",
    "version": "5.54.0"
  },
  {
    "name": "json-schema-traverse",
    "version": "1.0.0"
  },
  {
    "name": "multicast-dns",
    "version": "7.2.5"
  },
  {
    "name": "string-length",
    "version": "4.0.2"
  },
  {
    "name": "detect-node",
    "version": "2.1.0"
  },
  {
    "name": "error-ex",
    "version": "1.3.2"
  },
  {
    "name": "iconv-lite",
    "version": "0.4.24"
  },
  {
    "name": "jest-pnp-resolver",
    "version": "1.2.3"
  },
  {
    "name": "minimist",
    "version": "1.2.8"
  },
  {
    "name": "socks-proxy-agent",
    "version": "7.0.0"
  },
  {
    "name": "@testing-library/jest-dom",
    "version": "5.16.5"
  },
  {
    "name": "identity-obj-proxy",
    "version": "3.0.0"
  },
  {
    "name": "loader-runner",
    "version": "4.3.0"
  },
  {
    "name": "fraction.js",
    "version": "4.2.0"
  },
  {
    "name": "html-minifier-terser",
    "version": "6.1.0"
  },
  {
    "name": "regenerate-unicode-properties",
    "version": "10.1.0"
  },
  {
    "name": "@sinonjs/commons",
    "version": "1.8.6"
  },
  {
    "name": "postcss-svgo",
    "version": "5.1.0"
  },
  {
    "name": "argparse",
    "version": "2.0.1"
  },
  {
    "name": "babel-plugin-transform-react-remove-prop-types",
    "version": "0.4.24"
  },
  {
    "name": "kleur",
    "version": "3.0.3"
  },
  {
    "name": "lodash.debounce",
    "version": "4.0.8"
  },
  {
    "name": "@babel/helper-optimise-call-expression",
    "version": "7.18.6"
  },
  {
    "name": "ajv-formats",
    "version": "2.1.1"
  },
  {
    "name": "cssnano",
    "version": "5.1.15"
  },
  {
    "name": "html-webpack-plugin",
    "version": "5.5.0"
  },
  {
    "name": "is-arrayish",
    "version": "0.2.1"
  },
  {
    "name": "vary",
    "version": "1.1.2"
  },
  {
    "name": "semver",
    "version": "7.3.8"
  },
  {
    "name": "terminal-link",
    "version": "2.1.1"
  },
  {
    "name": "workbox-range-requests",
    "version": "6.5.4"
  },
  {
    "name": "xmlchars",
    "version": "2.2.0"
  },
  {
    "name": "yargs",
    "version": "16.2.0"
  },
  {
    "name": "ajv",
    "version": "8.12.0"
  },
  {
    "name": "expect",
    "version": "29.4.3"
  },
  {
    "name": "memfs",
    "version": "3.4.13"
  },
  {
    "name": "postcss-normalize",
    "version": "10.0.1"
  },
  {
    "name": "@types/connect-history-api-fallback",
    "version": "1.3.5"
  },
  {
    "name": "argparse",
    "version": "1.0.10"
  },
  {
    "name": "jest-worker",
    "version": "28.1.3"
  },
  {
    "name": "postcss-color-rebeccapurple",
    "version": "7.1.1"
  },
  {
    "name": "sourcemap-codec",
    "version": "1.4.8"
  },
  {
    "name": "@types/serve-static",
    "version": "1.15.1"
  },
  {
    "name": "braces",
    "version": "3.0.2"
  },
  {
    "name": "co",
    "version": "4.6.0"
  },
  {
    "name": "css-blank-pseudo",
    "version": "3.0.3"
  },
  {
    "name": "@csstools/postcss-font-format-keywords",
    "version": "1.0.1"
  },
  {
    "name": "levn",
    "version": "0.3.0"
  },
  {
    "name": "type-check",
    "version": "0.4.0"
  },
  {
    "name": "@babel/plugin-transform-typeof-symbol",
    "version": "7.18.9"
  },
  {
    "name": "eslint-plugin-jest",
    "version": "25.7.0"
  },
  {
    "name": "picomatch",
    "version": "2.3.1"
  },
  {
    "name": "@babel/generator",
    "version": "7.21.1"
  },
  {
    "name": "@babel/plugin-proposal-decorators",
    "version": "7.21.0"
  },
  {
    "name": "@babel/plugin-proposal-object-rest-spread",
    "version": "7.20.7"
  },
  {
    "name": "is-core-module",
    "version": "2.11.0"
  },
  {
    "name": "tsconfig-paths",
    "version": "3.14.2"
  },
  {
    "name": "workbox-webpack-plugin",
    "version": "6.5.4"
  },
  {
    "name": "pretty-format",
    "version": "29.4.3"
  },
  {
    "name": "@babel/plugin-transform-exponentiation-operator",
    "version": "7.18.6"
  },
  {
    "name": "@jridgewell/source-map",
    "version": "0.3.2"
  },
  {
    "name": "asap",
    "version": "2.0.6"
  },
  {
    "name": "cssstyle",
    "version": "2.3.0"
  },
  {
    "name": "glob-parent",
    "version": "6.0.2"
  },
  {
    "name": "object-hash",
    "version": "3.0.0"
  },
  {
    "name": "object.getownpropertydescriptors",
    "version": "2.1.5"
  },
  {
    "name": "v8-to-istanbul",
    "version": "8.1.1"
  },
  {
    "name": "@csstools/postcss-oklab-function",
    "version": "1.1.1"
  },
  {
    "name": "@jridgewell/resolve-uri",
    "version": "3.1.0"
  },
  {
    "name": "@tootallnate/once",
    "version": "2.0.0"
  },
  {
    "name": "@types/qs",
    "version": "6.9.7"
  },
  {
    "name": "acorn-jsx",
    "version": "5.3.2"
  },
  {
    "name": "jest-docblock",
    "version": "27.5.1"
  },
  {
    "name": "@babel/plugin-transform-for-of",
    "version": "7.21.0"
  },
  {
    "name": "@humanwhocodes/module-importer",
    "version": "1.0.1"
  },
  {
    "name": "damerau-levenshtein",
    "version": "1.0.8"
  },
  {
    "name": "find-cache-dir",
    "version": "3.3.2"
  },
  {
    "name": "to-fast-properties",
    "version": "2.0.0"
  },
  {
    "name": "wide-align",
    "version": "1.1.5"
  },
  {
    "name": "@webassemblyjs/wasm-opt",
    "version": "1.11.1"
  },
  {
    "name": "core-js",
    "version": "3.29.0"
  },
  {
    "name": "is-weakref",
    "version": "1.0.2"
  },
  {
    "name": "postcss-font-variant",
    "version": "5.0.0"
  },
  {
    "name": "regenerator-runtime",
    "version": "0.13.11"
  },
  {
    "name": "tapable",
    "version": "1.1.3"
  },
  {
    "name": "@sinclair/typebox",
    "version": "0.24.51"
  },
  {
    "name": "anymatch",
    "version": "3.1.3"
  },
  {
    "name": "eslint-module-utils",
    "version": "2.7.4"
  },
  {
    "name": "find-up",
    "version": "5.0.0"
  },
  {
    "name": "@jest/schemas",
    "version": "29.4.3"
  },
  {
    "name": "esprima",
    "version": "4.0.1"
  },
  {
    "name": "lodash.merge",
    "version": "4.6.2"
  },
  {
    "name": "picocolors",
    "version": "1.0.0"
  },
  {
    "name": "postcss-browser-comments",
    "version": "4.0.0"
  },
  {
    "name": "@babel/helper-hoist-variables",
    "version": "7.18.6"
  },
  {
    "name": "@babel/plugin-transform-classes",
    "version": "7.21.0"
  },
  {
    "name": "@webassemblyjs/utf8",
    "version": "1.11.1"
  },
  {
    "name": "fast-json-stable-stringify",
    "version": "2.1.0"
  },
  {
    "name": "flatted",
    "version": "3.2.7"
  },
  {
    "name": "sisteransi",
    "version": "1.0.5"
  },
  {
    "name": "@babel/helper-split-export-declaration",
    "version": "7.18.6"
  },
  {
    "name": "@babel/plugin-proposal-nullish-coalescing-operator",
    "version": "7.18.6"
  },
  {
    "name": "@svgr/babel-plugin-svg-dynamic-title",
    "version": "5.4.0"
  },
  {
    "name": "dom-converter",
    "version": "0.2.0"
  },
  {
    "name": "path-to-regexp",
    "version": "0.1.7"
  },
  {
    "name": "workbox-strategies",
    "version": "6.5.4"
  },
  {
    "name": "strip-comments",
    "version": "2.0.1"
  },
  {
    "name": "@babel/plugin-syntax-export-namespace-from",
    "version": "7.8.3"
  },
  {
    "name": "@babel/plugin-syntax-optional-chaining",
    "version": "7.8.3"
  },
  {
    "name": "@babel/plugin-transform-template-literals",
    "version": "7.18.9"
  },
  {
    "name": "function-bind",
    "version": "1.1.1"
  },
  {
    "name": "inherits",
    "version": "2.0.3"
  },
  {
    "name": "postcss-modules-scope",
    "version": "3.0.0"
  },
  {
    "name": "yallist",
    "version": "4.0.0"
  },
  {
    "name": "@babel/plugin-syntax-import-meta",
    "version": "7.10.4"
  },
  {
    "name": "@webassemblyjs/helper-numbers",
    "version": "1.11.1"
  },
  {
    "name": "common-tags",
    "version": "1.8.2"
  },
  {
    "name": "ipaddr.js",
    "version": "1.9.1"
  },
  {
    "name": "jest-circus",
    "version": "27.5.1"
  },
  {
    "name": "jest-regex-util",
    "version": "28.0.2"
  },
  {
    "name": "babel-plugin-jest-hoist",
    "version": "27.5.1"
  },
  {
    "name": "glob",
    "version": "7.2.3"
  },
  {
    "name": "js-tokens",
    "version": "4.0.0"
  },
  {
    "name": "minimatch",
    "version": "3.1.2"
  },
  {
    "name": "parent-module",
    "version": "1.0.1"
  },
  {
    "name": "color-convert",
    "version": "2.0.1"
  },
  {
    "name": "form-data",
    "version": "3.0.1"
  },
  {
    "name": "lower-case",
    "version": "2.0.2"
  },
  {
    "name": "minizlib",
    "version": "2.1.2"
  },
  {
    "name": "@babel/plugin-transform-destructuring",
    "version": "7.20.7"
  },
  {
    "name": "unicode-canonical-property-names-ecmascript",
    "version": "2.0.0"
  },
  {
    "name": "workbox-routing",
    "version": "6.5.4"
  },
  {
    "name": "@jest/types",
    "version": "28.1.3"
  },
  {
    "name": "@types/serve-index",
    "version": "1.9.1"
  },
  {
    "name": "domelementtype",
    "version": "2.3.0"
  },
  {
    "name": "postcss-normalize-repeat-style",
    "version": "5.1.1"
  },
  {
    "name": "schema-utils",
    "version": "2.7.1"
  },
  {
    "name": "relateurl",
    "version": "0.2.7"
  },
  {
    "name": "web-vitals",
    "version": "2.1.4"
  },
  {
    "name": "@babel/plugin-transform-literals",
    "version": "7.18.9"
  },
  {
    "name": "cssdb",
    "version": "7.4.1"
  },
  {
    "name": "escape-string-regexp",
    "version": "1.0.5"
  },
  {
    "name": "global-modules",
    "version": "2.0.0"
  },
  {
    "name": "is-regex",
    "version": "1.1.4"
  },
  {
    "name": "lru-cache",
    "version": "7.18.1"
  },
  {
    "name": "webpack-dev-server",
    "version": "4.11.1"
  },
  {
    "name": "babel-plugin-named-asset-import",
    "version": "0.3.8"
  },
  {
    "name": "char-regex",
    "version": "2.0.1"
  },
  {
    "name": "eslint-config-react-app",
    "version": "7.0.1"
  },
  {
    "name": "postcss-pseudo-class-any-link",
    "version": "7.1.6"
  },
  {
    "name": "@types/connect",
    "version": "3.4.35"
  },
  {
    "name": "http-parser-js",
    "version": "0.5.8"
  },
  {
    "name": "postcss-color-functional-notation",
    "version": "4.2.4"
  },
  {
    "name": "range-parser",
    "version": "1.2.1"
  },
  {
    "name": "react-dev-utils",
    "version": "12.0.1"
  },
  {
    "name": "regenerator-transform",
    "version": "0.15.1"
  },
  {
    "name": "css-what",
    "version": "3.4.2"
  },
  {
    "name": "import-local",
    "version": "3.1.0"
  },
  {
    "name": "sockjs",
    "version": "0.3.24"
  },
  {
    "name": "@jest/schemas",
    "version": "28.1.3"
  },
  {
    "name": "es-set-tostringtag",
    "version": "2.0.1"
  },
  {
    "name": "eslint-visitor-keys",
    "version": "3.3.0"
  },
  {
    "name": "jest-config",
    "version": "27.5.1"
  },
  {
    "name": "micromatch",
    "version": "4.0.5"
  },
  {
    "name": "react-is",
    "version": "17.0.2"
  },
  {
    "name": "merge-descriptors",
    "version": "1.0.1"
  },
  {
    "name": "content-disposition",
    "version": "0.5.4"
  },
  {
    "name": "css-declaration-sorter",
    "version": "6.3.1"
  },
  {
    "name": "etag",
    "version": "1.8.1"
  },
  {
    "name": "minipass-flush",
    "version": "1.0.5"
  },
  {
    "name": "npmlog",
    "version": "6.0.2"
  },
  {
    "name": "@babel/plugin-transform-shorthand-properties",
    "version": "7.18.6"
  },
  {
    "name": "chalk",
    "version": "2.4.2"
  },
  {
    "name": "jest-get-type",
    "version": "27.5.1"
  },
  {
    "name": "type-is",
    "version": "1.6.18"
  },
  {
    "name": "yargs-parser",
    "version": "20.2.9"
  },
  {
    "name": "minimatch",
    "version": "5.1.6"
  },
  {
    "name": "open",
    "version": "8.4.2"
  },
  {
    "name": "string.prototype.trimend",
    "version": "1.0.6"
  },
  {
    "name": "supports-preserve-symlinks-flag",
    "version": "1.0.0"
  },
  {
    "name": "universalify",
    "version": "2.0.0"
  },
  {
    "name": "@babel/plugin-transform-unicode-escapes",
    "version": "7.18.10"
  },
  {
    "name": "side-channel",
    "version": "1.0.4"
  },
  {
    "name": "strip-indent",
    "version": "3.0.0"
  },
  {
    "name": "upath",
    "version": "1.2.0"
  },
  {
    "name": "ee-first",
    "version": "1.1.1"
  },
  {
    "name": "faye-websocket",
    "version": "0.11.4"
  },
  {
    "name": "http-proxy",
    "version": "1.18.1"
  },
  {
    "name": "is-number",
    "version": "7.0.0"
  },
  {
    "name": "loader-utils",
    "version": "3.2.1"
  },
  {
    "name": "postcss-normalize-url",
    "version": "5.1.0"
  },
  {
    "name": "@types/yargs-parser",
    "version": "21.0.0"
  },
  {
    "name": "js-sdsl",
    "version": "4.3.0"
  },
  {
    "name": "kind-of",
    "version": "6.0.3"
  },
  {
    "name": "postcss-unique-selectors",
    "version": "5.1.1"
  },
  {
    "name": "postcss-value-parser",
    "version": "4.2.0"
  },
  {
    "name": "@babel/plugin-proposal-optional-chaining",
    "version": "7.21.0"
  },
  {
    "name": "@babel/plugin-transform-sticky-regex",
    "version": "7.18.6"
  },
  {
    "name": "array-flatten",
    "version": "1.1.1"
  },
  {
    "name": "escape-string-regexp",
    "version": "4.0.0"
  },
  {
    "name": "is-bigint",
    "version": "1.0.4"
  },
  {
    "name": "is-path-inside",
    "version": "3.0.3"
  },
  {
    "name": "which-boxed-primitive",
    "version": "1.0.2"
  },
  {
    "name": "delegates",
    "version": "1.0.0"
  },
  {
    "name": "es-abstract",
    "version": "1.21.1"
  },
  {
    "name": "@babel/plugin-transform-function-name",
    "version": "7.18.9"
  },
  {
    "name": "bluebird",
    "version": "3.7.2"
  },
  {
    "name": "chalk",
    "version": "3.0.0"
  },
  {
    "name": "ci-info",
    "version": "3.8.0"
  },
  {
    "name": "collect-v8-coverage",
    "version": "1.0.1"
  },
  {
    "name": "color-support",
    "version": "1.1.3"
  },
  {
    "name": "object.hasown",
    "version": "1.1.2"
  },
  {
    "name": "webpack-sources",
    "version": "3.2.3"
  },
  {
    "name": "whatwg-encoding",
    "version": "1.0.5"
  },
  {
    "name": "wrap-ansi",
    "version": "7.0.0"
  },
  {
    "name": "has-property-descriptors",
    "version": "1.0.0"
  },
  {
    "name": "schema-utils",
    "version": "4.0.0"
  },
  {
    "name": "w3c-xmlserializer",
    "version": "2.0.0"
  },
  {
    "name": "ws",
    "version": "7.5.9"
  },
  {
    "name": "@babel/plugin-syntax-async-generators",
    "version": "7.8.4"
  },
  {
    "name": "@babel/plugin-syntax-nullish-coalescing-operator",
    "version": "7.8.3"
  },
  {
    "name": "autoprefixer",
    "version": "10.4.13"
  },
  {
    "name": "cssnano-utils",
    "version": "3.1.0"
  },
  {
    "name": "p-map",
    "version": "4.0.0"
  },
  {
    "name": "select-hose",
    "version": "2.0.0"
  },
  {
    "name": "@babel/plugin-syntax-private-property-in-object",
    "version": "7.14.5"
  },
  {
    "name": "iconv-lite",
    "version": "0.6.3"
  },
  {
    "name": "@babel/plugin-transform-dotall-regex",
    "version": "7.18.6"
  },
  {
    "name": "@babel/plugin-transform-reserved-words",
    "version": "7.18.6"
  },
  {
    "name": "camelcase-css",
    "version": "2.0.1"
  },
  {
    "name": "for-each",
    "version": "0.3.3"
  },
  {
    "name": "lodash.uniq",
    "version": "4.5.0"
  },
  {
    "name": "postcss-focus-within",
    "version": "5.0.4"
  },
  {
    "name": "@babel/plugin-proposal-private-methods",
    "version": "7.18.6"
  },
  {
    "name": "ajv",
    "version": "6.12.6"
  },
  {
    "name": "browser-process-hrtime",
    "version": "1.0.0"
  },
  {
    "name": "immer",
    "version": "9.0.19"
  },
  {
    "name": "is-potential-custom-element-name",
    "version": "1.0.1"
  },
  {
    "name": "run-parallel",
    "version": "1.2.0"
  },
  {
    "name": "@babel/plugin-transform-modules-systemjs",
    "version": "7.20.11"
  },
  {
    "name": "combined-stream",
    "version": "1.0.8"
  },
  {
    "name": "follow-redirects",
    "version": "1.15.2"
  },
  {
    "name": "nth-check",
    "version": "1.0.2"
  },
  {
    "name": "scheduler",
    "version": "0.23.0"
  },
  {
    "name": "babel-plugin-polyfill-corejs2",
    "version": "0.3.3"
  },
  {
    "name": "big.js",
    "version": "5.2.2"
  },
  {
    "name": "minipass",
    "version": "4.2.4"
  },
  {
    "name": "react-is",
    "version": "16.13.1"
  },
  {
    "name": "@types/babel__template",
    "version": "7.4.1"
  },
  {
    "name": "@types/parse-json",
    "version": "4.0.0"
  },
  {
    "name": "@types/yargs",
    "version": "17.0.22"
  },
  {
    "name": "regex-parser",
    "version": "2.2.11"
  },
  {
    "name": "eslint-utils",
    "version": "3.0.0"
  },
  {
    "name": "functions-have-names",
    "version": "1.2.3"
  },
  {
    "name": "react-error-overlay",
    "version": "6.0.11"
  },
  {
    "name": "slash",
    "version": "4.0.0"
  },
  {
    "name": "yaml",
    "version": "1.10.2"
  },
  {
    "name": "@babel/plugin-bugfix-safari-id-destructuring-collision-in-function-expression",
    "version": "7.18.6"
  },
  {
    "name": "ansi-regex",
    "version": "6.0.1"
  },
  {
    "name": "caniuse-api",
    "version": "3.0.0"
  },
  {
    "name": "es-module-lexer",
    "version": "0.9.3"
  },
  {
    "name": "param-case",
    "version": "3.0.4"
  },
  {
    "name": "workbox-streams",
    "version": "6.5.4"
  },
  {
    "name": "@types/json5",
    "version": "0.0.29"
  },
  {
    "name": "min-indent",
    "version": "1.0.1"
  },
  {
    "name": "set-blocking",
    "version": "2.0.0"
  },
  {
    "name": "supports-color",
    "version": "5.5.0"
  },
  {
    "name": "webpack-sources",
    "version": "1.4.3"
  },
  {
    "name": "@csstools/postcss-cascade-layers",
    "version": "1.1.1"
  },
  {
    "name": "inflight",
    "version": "1.0.6"
  },
  {
    "name": "reusify",
    "version": "1.0.4"
  },
  {
    "name": "workbox-background-sync",
    "version": "6.5.4"
  },
  {
    "name": "@types/json-schema",
    "version": "7.0.11"
  },
  {
    "name": "@types/scheduler",
    "version": "0.16.2"
  },
  {
    "name": "@types/semver",
    "version": "7.3.13"
  },
  {
    "name": "@typescript-eslint/typescript-estree",
    "version": "5.54.0"
  },
  {
    "name": "bonjour-service",
    "version": "1.1.0"
  },
  {
    "name": "global-prefix",
    "version": "3.0.0"
  },
  {
    "name": "postcss-image-set-function",
    "version": "4.0.7"
  },
  {
    "name": "serve-index",
    "version": "1.9.1"
  },
  {
    "name": "@babel/types",
    "version": "7.21.2"
  },
  {
    "name": "clean-stack",
    "version": "2.2.0"
  },
  {
    "name": "data-urls",
    "version": "2.0.0"
  },
  {
    "name": "minipass-sized",
    "version": "1.0.3"
  },
  {
    "name": "regenerate",
    "version": "1.4.2"
  },
  {
    "name": "sanitize.css",
    "version": "13.0.0"
  },
  {
    "name": "css-select",
    "version": "2.1.0"
  },
  {
    "name": "function.prototype.name",
    "version": "1.1.5"
  },
  {
    "name": "is-stream",
    "version": "2.0.1"
  },
  {
    "name": "mkdirp",
    "version": "1.0.4"
  },
  {
    "name": "object.assign",
    "version": "4.1.4"
  },
  {
    "name": "@nicolo-ribaudo/eslint-scope-5-internals",
    "version": "5.1.1-v1"
  },
  {
    "name": "@svgr/plugin-svgo",
    "version": "5.5.0"
  },
  {
    "name": "@types/testing-library__jest-dom",
    "version": "5.14.5"
  },
  {
    "name": "dedent",
    "version": "0.7.0"
  },
  {
    "name": "postcss-loader",
    "version": "6.2.1"
  },
  {
    "name": "find-up",
    "version": "4.1.0"
  },
  {
    "name": "has",
    "version": "1.0.3"
  },
  {
    "name": "unquote",
    "version": "1.1.1"
  },
  {
    "name": "@sinclair/typebox",
    "version": "0.25.24"
  },
  {
    "name": "balanced-match",
    "version": "1.0.2"
  },
  {
    "name": "eslint-plugin-react-hooks",
    "version": "4.6.0"
  },
  {
    "name": "postcss-logical",
    "version": "5.0.4"
  },
  {
    "name": "@babel/plugin-transform-new-target",
    "version": "7.18.6"
  },
  {
    "name": "@jest/console",
    "version": "27.5.1"
  },
  {
    "name": "@babel/plugin-syntax-object-rest-spread",
    "version": "7.8.3"
  },
  {
    "name": "color-name",
    "version": "1.1.4"
  },
  {
    "name": "@babel/plugin-transform-typescript",
    "version": "7.21.0"
  },
  {
    "name": "@webassemblyjs/wasm-gen",
    "version": "1.11.1"
  },
  {
    "name": "chalk",
    "version": "4.1.2"
  },
  {
    "name": "bytes",
    "version": "3.1.2"
  },
  {
    "name": "css-minimizer-webpack-plugin",
    "version": "3.4.1"
  },
  {
    "name": "fs-extra",
    "version": "10.1.0"
  },
  {
    "name": "postcss-ordered-values",
    "version": "5.1.3"
  },
  {
    "name": "postcss-gap-properties",
    "version": "3.0.5"
  },
  {
    "name": "@babel/helper-builder-binary-assignment-operator-visitor",
    "version": "7.18.9"
  },
  {
    "name": "@babel/parser",
    "version": "7.21.2"
  },
  {
    "name": "@babel/plugin-syntax-import-assertions",
    "version": "7.20.0"
  },
  {
    "name": "at-least-node",
    "version": "1.0.0"
  },
  {
    "name": "get-package-type",
    "version": "0.1.0"
  },
  {
    "name": "hpack.js",
    "version": "2.1.6"
  },
  {
    "name": "regexpu-core",
    "version": "5.3.1"
  },
  {
    "name": "tapable",
    "version": "2.2.1"
  },
  {
    "name": "@types/http-proxy",
    "version": "1.17.10"
  },
  {
    "name": "agentkeepalive",
    "version": "4.2.1"
  },
  {
    "name": "commondir",
    "version": "1.0.1"
  },
  {
    "name": "fastq",
    "version": "1.15.0"
  },
  {
    "name": "parse-json",
    "version": "5.2.0"
  },
  {
    "name": "regexpp",
    "version": "3.2.0"
  },
  {
    "name": "@babel/helper-member-expression-to-functions",
    "version": "7.21.0"
  },
  {
    "name": "@babel/plugin-proposal-optional-catch-binding",
    "version": "7.18.6"
  },
  {
    "name": "@types/istanbul-lib-report",
    "version": "3.0.0"
  },
  {
    "name": "emoji-regex",
    "version": "9.2.2"
  },
  {
    "name": "postcss-normalize-unicode",
    "version": "5.1.1"
  },
  {
    "name": "to-regex-range",
    "version": "5.0.1"
  },
  {
    "name": "eslint-plugin-flowtype",
    "version": "8.0.3"
  },
  {
    "name": "eslint",
    "version": "8.35.0"
  },
  {
    "name": "loose-envify",
    "version": "1.4.0"
  },
  {
    "name": "path-type",
    "version": "4.0.0"
  },
  {
    "name": "readdirp",
    "version": "3.6.0"
  },
  {
    "name": "whatwg-url",
    "version": "8.7.0"
  },
  {
    "name": "char-regex",
    "version": "1.0.2"
  },
  {
    "name": "dotenv-expand",
    "version": "5.1.0"
  },
  {
    "name": "postcss-selector-not",
    "version": "6.0.1"
  },
  {
    "name": "react-scripts",
    "version": "5.0.1"
  },
  {
    "name": "sprintf-js",
    "version": "1.0.3"
  },
  {
    "name": "xtend",
    "version": "4.0.2"
  },
  {
    "name": "@apideck/better-ajv-errors",
    "version": "0.3.6"
  },
  {
    "name": "define-properties",
    "version": "1.2.0"
  },
  {
    "name": "resolve.exports",
    "version": "1.1.1"
  },
  {
    "name": "commander",
    "version": "2.20.3"
  },
  {
    "name": "globals",
    "version": "13.20.0"
  },
  {
    "name": "resolve",
    "version": "2.0.0-next.4"
  },
  {
    "name": "statuses",
    "version": "2.0.1"
  },
  {
    "name": "unicode-property-aliases-ecmascript",
    "version": "2.1.0"
  },
  {
    "name": "wrappy",
    "version": "1.0.2"
  },
  {
    "name": "@webassemblyjs/helper-wasm-section",
    "version": "1.11.1"
  },
  {
    "name": "istanbul-lib-coverage",
    "version": "3.2.0"
  },
  {
    "name": "workbox-recipes",
    "version": "6.5.4"
  },
  {
    "name": "aria-query",
    "version": "5.1.3"
  },
  {
    "name": "fs-monkey",
    "version": "1.0.3"
  },
  {
    "name": "http-proxy-agent",
    "version": "4.0.1"
  },
  {
    "name": "safe-buffer",
    "version": "5.2.1"
  },
  {
    "name": "saxes",
    "version": "5.0.1"
  },
  {
    "name": "thunky",
    "version": "1.1.0"
  },
  {
    "name": "array-flatten",
    "version": "2.1.2"
  },
  {
    "name": "fsevents",
    "version": "2.3.2"
  },
  {
    "name": "http-proxy-middleware",
    "version": "2.0.6"
  },
  {
    "name": "promise-inflight",
    "version": "1.0.1"
  },
  {
    "name": "update-browserslist-db",
    "version": "1.0.10"
  },
  {
    "name": "@babel/helper-function-name",
    "version": "7.21.0"
  },
  {
    "name": "@babel/plugin-syntax-numeric-separator",
    "version": "7.10.4"
  },
  {
    "name": "@jest/console",
    "version": "28.1.3"
  },
  {
    "name": "debug",
    "version": "3.2.7"
  },
  {
    "name": "esquery",
    "version": "1.5.0"
  },
  {
    "name": "jest-snapshot",
    "version": "27.5.1"
  },
  {
    "name": "postcss-minify-params",
    "version": "5.1.4"
  },
  {
    "name": "is-root",
    "version": "2.1.0"
  },
  {
    "name": "is-set",
    "version": "2.0.2"
  },
  {
    "name": "@types/aria-query",
    "version": "5.0.1"
  },
  {
    "name": "@webassemblyjs/wasm-edit",
    "version": "1.11.1"
  },
  {
    "name": "camelcase",
    "version": "6.3.0"
  },
  {
    "name": "coa",
    "version": "2.0.2"
  },
  {
    "name": "css-select",
    "version": "4.3.0"
  },
  {
    "name": "domhandler",
    "version": "4.3.1"
  },
  {
    "name": "jest-environment-jsdom",
    "version": "27.5.1"
  },
  {
    "name": "mdn-data",
    "version": "2.0.14"
  },
  {
    "name": "pify",
    "version": "2.3.0"
  },
  {
    "name": "@svgr/plugin-jsx",
    "version": "5.5.0"
  },
  {
    "name": "pascal-case",
    "version": "3.1.2"
  },
  {
    "name": "prop-types",
    "version": "15.8.1"
  },
  {
    "name": "supports-color",
    "version": "8.1.1"
  },
  {
    "name": "@babel/plugin-transform-react-jsx",
    "version": "7.21.0"
  },
  {
    "name": "domutils",
    "version": "1.7.0"
  },
  {
    "name": "glob-to-regexp",
    "version": "0.4.1"
  },
  {
    "name": "html-entities",
    "version": "2.3.3"
  },
  {
    "name": "stable",
    "version": "0.1.8"
  },
  {
    "name": "on-headers",
    "version": "1.0.2"
  },
  {
    "name": "@babel/helper-replace-supers",
    "version": "7.20.7"
  },
  {
    "name": "@babel/plugin-syntax-jsx",
    "version": "7.18.6"
  },
  {
    "name": "console-control-strings",
    "version": "1.1.0"
  },
  {
    "name": "content-type",
    "version": "1.0.5"
  },
  {
    "name": "convert-source-map",
    "version": "1.9.0"
  },
  {
    "name": "ms",
    "version": "2.0.0"
  },
  {
    "name": "@webassemblyjs/floating-point-hex-parser",
    "version": "1.11.1"
  },
  {
    "name": "brace-expansion",
    "version": "1.1.11"
  },
  {
    "name": "core-util-is",
    "version": "1.0.3"
  },
  {
    "name": "human-signals",
    "version": "2.1.0"
  },
  {
    "name": "jest-jasmine2",
    "version": "27.5.1"
  },
  {
    "name": "word-wrap",
    "version": "1.2.3"
  },
  {
    "name": "adjust-sourcemap-loader",
    "version": "4.0.0"
  },
  {
    "name": "finalhandler",
    "version": "1.2.0"
  },
  {
    "name": "lru-cache",
    "version": "5.1.1"
  },
  {
    "name": "pretty-format",
    "version": "28.1.3"
  },
  {
    "name": "array.prototype.flat",
    "version": "1.3.1"
  },
  {
    "name": "dir-glob",
    "version": "3.0.1"
  },
  {
    "name": "gopd",
    "version": "1.0.1"
  },
  {
    "name": "nanoid",
    "version": "3.3.4"
  },
  {
    "name": "object.fromentries",
    "version": "2.0.6"
  },
  {
    "name": "p-locate",
    "version": "3.0.0"
  },
  {
    "name": "ansi-escapes",
    "version": "4.3.2"
  },
  {
    "name": "globalthis",
    "version": "1.0.3"
  },
  {
    "name": "has-symbols",
    "version": "1.0.3"
  },
  {
    "name": "is-array-buffer",
    "version": "3.0.2"
  },
  {
    "name": "path-is-absolute",
    "version": "1.0.1"
  },
  {
    "name": "@csstools/postcss-color-function",
    "version": "1.1.1"
  },
  {
    "name": "@csstools/postcss-is-pseudo-class",
    "version": "2.0.7"
  },
  {
    "name": "@pmmmwh/react-refresh-webpack-plugin",
    "version": "0.5.10"
  },
  {
    "name": "workbox-cacheable-response",
    "version": "6.5.4"
  },
  {
    "name": "y18n",
    "version": "5.0.8"
  },
  {
    "name": "@babel/helper-module-imports",
    "version": "7.18.6"
  },
  {
    "name": "@babel/plugin-syntax-class-properties",
    "version": "7.12.13"
  },
  {
    "name": "cookie",
    "version": "0.5.0"
  },
  {
    "name": "json-parse-even-better-errors",
    "version": "2.3.1"
  },
  {
    "name": "minipass",
    "version": "3.3.6"
  },
  {
    "name": "postcss-selector-parser",
    "version": "6.0.11"
  },
  {
    "name": "@humanwhocodes/object-schema",
    "version": "1.2.1"
  },
  {
    "name": "is-wsl",
    "version": "2.2.0"
  },
  {
    "name": "unique-slug",
    "version": "3.0.0"
  },
  {
    "name": "delayed-stream",
    "version": "1.0.0"
  },
  {
    "name": "emittery",
    "version": "0.8.1"
  },
  {
    "name": "imurmurhash",
    "version": "0.1.4"
  },
  {
    "name": "js-yaml",
    "version": "3.14.1"
  },
  {
    "name": "ms",
    "version": "2.1.3"
  },
  {
    "name": "pretty-bytes",
    "version": "5.6.0"
  },
  {
    "name": "arg",
    "version": "5.0.2"
  },
  {
    "name": "csstype",
    "version": "3.1.1"
  },
  {
    "name": "debug",
    "version": "4.3.4"
  },
  {
    "name": "@jridgewell/set-array",
    "version": "1.1.2"
  },
  {
    "name": "diff-sequences",
    "version": "29.4.3"
  },
  {
    "name": "fb-watchman",
    "version": "2.0.2"
  },
  {
    "name": "handle-thing",
    "version": "2.0.1"
  },
  {
    "name": "tempy",
    "version": "0.6.0"
  },
  {
    "name": "@csstools/postcss-stepped-value-functions",
    "version": "1.0.1"
  },
  {
    "name": "@nodelib/fs.scandir",
    "version": "2.1.5"
  },
  {
    "name": "is-binary-path",
    "version": "2.1.0"
  },
  {
    "name": "is-boolean-object",
    "version": "1.1.2"
  },
  {
    "name": "unpipe",
    "version": "1.0.0"
  },
  {
    "name": "@adobe/css-tools",
    "version": "4.2.0"
  },
  {
    "name": "@babel/plugin-transform-modules-amd",
    "version": "7.20.11"
  },
  {
    "name": "tryer",
    "version": "1.0.1"
  },
  {
    "name": "watchpack",
    "version": "2.4.0"
  },
  {
    "name": "@jest/test-result",
    "version": "27.5.1"
  },
  {
    "name": "escape-html",
    "version": "1.0.3"
  },
  {
    "name": "json-schema",
    "version": "0.4.0"
  },
  {
    "name": "resolve-from",
    "version": "5.0.0"
  },
  {
    "name": "spdy-transport",
    "version": "3.0.0"
  },
  {
    "name": "@babel/plugin-transform-react-display-name",
    "version": "7.18.6"
  },
  {
    "name": "are-we-there-yet",
    "version": "3.0.1"
  },
  {
    "name": "cjs-module-lexer",
    "version": "1.2.2"
  },
  {
    "name": "postcss-color-hex-alpha",
    "version": "8.0.4"
  },
  {
    "name": "@webassemblyjs/wast-printer",
    "version": "1.11.1"
  },
  {
    "name": "jest-message-util",
    "version": "29.4.3"
  },
  {
    "name": "randombytes",
    "version": "2.1.0"
  },
  {
    "name": "rollup-plugin-terser",
    "version": "7.0.2"
  },
  {
    "name": "source-map-loader",
    "version": "3.0.2"
  },
  {
    "name": "svg-parser",
    "version": "2.0.4"
  },
  {
    "name": "type-fest",
    "version": "0.21.3"
  },
  {
    "name": "@babel/plugin-syntax-flow",
    "version": "7.18.6"
  },
  {
    "name": "@svgr/hast-util-to-babel-ast",
    "version": "5.5.0"
  },
  {
    "name": "events",
    "version": "3.3.0"
  },
  {
    "name": "jest-watcher",
    "version": "27.5.1"
  },
  {
    "name": "jsdom",
    "version": "16.7.0"
  },
  {
    "name": "jsonpointer",
    "version": "5.0.1"
  },
  {
    "name": "@babel/plugin-proposal-dynamic-import",
    "version": "7.18.6"
  },
  {
    "name": "@typescript-eslint/types",
    "version": "5.54.0"
  },
  {
    "name": "estraverse",
    "version": "4.3.0"
  },
  {
    "name": "p-try",
    "version": "2.2.0"
  },
  {
    "name": "websocket-extensions",
    "version": "0.1.4"
  },
  {
    "name": "which-collection",
    "version": "1.0.1"
  },
  {
    "name": "workbox-build",
    "version": "6.5.4"
  },
  {
    "name": "@babel/plugin-transform-parameters",
    "version": "7.20.7"
  },
  {
    "name": "defined",
    "version": "1.0.1"
  },
  {
    "name": "dom-accessibility-api",
    "version": "0.5.16"
  },
  {
    "name": "globals",
    "version": "11.12.0"
  },
  {
    "name": "mime-db",
    "version": "1.52.0"
  },
  {
    "name": "tr46",
    "version": "2.1.0"
  },
  {
    "name": "@babel/plugin-syntax-typescript",
    "version": "7.20.0"
  },
  {
    "name": "flat-cache",
    "version": "3.0.4"
  },
  {
    "name": "html-escaper",
    "version": "2.0.2"
  },
  {
    "name": "json5",
    "version": "1.0.2"
  },
  {
    "name": "smart-buffer",
    "version": "4.2.0"
  },
  {
    "name": "temp-dir",
    "version": "2.0.0"
  },
  {
    "name": "node-gyp",
    "version": "9.3.1"
  },
  {
    "name": "postcss-place",
    "version": "7.0.5"
  },
  {
    "name": "@babel/code-frame",
    "version": "7.18.6"
  },
  {
    "name": "ansi-styles",
    "version": "4.3.0"
  },
  {
    "name": "call-bind",
    "version": "1.0.2"
  },
  {
    "name": "ejs",
    "version": "3.1.8"
  },
  {
    "name": "istanbul-reports",
    "version": "3.1.5"
  },
  {
    "name": "jest-haste-map",
    "version": "27.5.1"
  },
  {
    "name": "@csstools/postcss-unset-value",
    "version": "1.0.2"
  },
  {
    "name": "eslint-plugin-jsx-a11y",
    "version": "6.7.1"
  },
  {
    "name": "postcss-initial",
    "version": "4.0.1"
  },
  {
    "name": "postcss-normalize-whitespace",
    "version": "5.1.1"
  },
  {
    "name": "retry",
    "version": "0.13.1"
  },
  {
    "name": "@types/estree",
    "version": "1.0.0"
  },
  {
    "name": "cookie-signature",
    "version": "1.0.6"
  },
  {
    "name": "default-gateway",
    "version": "6.0.3"
  },
  {
    "name": "klona",
    "version": "2.0.6"
  },
  {
    "name": "mimic-fn",
    "version": "2.1.0"
  },
  {
    "name": "safer-buffer",
    "version": "2.1.2"
  },
  {
    "name": "@babel/eslint-parser",
    "version": "7.19.1"
  },
  {
    "name": "@babel/helper-string-parser",
    "version": "7.19.4"
  },
  {
    "name": "@babel/plugin-proposal-async-generator-functions",
    "version": "7.20.7"
  },
  {
    "name": "acorn-import-assertions",
    "version": "1.8.0"
  },
  {
    "name": "address",
    "version": "1.2.2"
  },
  {
    "name": "case-sensitive-paths-webpack-plugin",
    "version": "2.4.0"
  },
  {
    "name": "confusing-browser-globals",
    "version": "1.0.11"
  },
  {
    "name": "icss-utils",
    "version": "5.1.0"
  },
  {
    "name": "postcss-attribute-case-insensitive",
    "version": "5.0.2"
  },
  {
    "name": "q",
    "version": "1.5.1"
  },
  {
    "name": "yocto-queue",
    "version": "0.1.0"
  },
  {
    "name": "@csstools/normalize.css",
    "version": "12.0.0"
  },
  {
    "name": "babel-preset-current-node-syntax",
    "version": "1.0.1"
  },
  {
    "name": "jest-changed-files",
    "version": "27.5.1"
  },
  {
    "name": "jest-diff",
    "version": "27.5.1"
  },
  {
    "name": "strip-bom",
    "version": "3.0.0"
  },
  {
    "name": "strip-ansi",
    "version": "7.0.1"
  },
  {
    "name": "terser-webpack-plugin",
    "version": "5.3.6"
  },
  {
    "name": "@babel/helper-validator-option",
    "version": "7.21.0"
  },
  {
    "name": "@jridgewell/gen-mapping",
    "version": "0.1.1"
  },
  {
    "name": "eslint-plugin-react",
    "version": "7.32.2"
  },
  {
    "name": "methods",
    "version": "1.1.2"
  },
  {
    "name": "performance-now",
    "version": "2.1.0"
  },
  {
    "name": "stop-iteration-iterator",
    "version": "1.0.0"
  },
  {
    "name": "@babel/helper-annotate-as-pure",
    "version": "7.18.6"
  },
  {
    "name": "define-lazy-prop",
    "version": "2.0.0"
  },
  {
    "name": "esutils",
    "version": "2.0.3"
  },
  {
    "name": "fast-levenshtein",
    "version": "2.0.6"
  },
  {
    "name": "jsx-ast-utils",
    "version": "3.3.3"
  },
  {
    "name": "postcss",
    "version": "8.4.21"
  },
  {
    "name": "parse5",
    "version": "6.0.1"
  },
  {
    "name": "@csstools/postcss-normalize-display-values",
    "version": "1.0.1"
  },
  {
    "name": "detect-port-alt",
    "version": "1.1.6"
  },
  {
    "name": "express",
    "version": "4.18.2"
  },
  {
    "name": "is-plain-obj",
    "version": "3.0.0"
  },
  {
    "name": "jest-watch-typeahead",
    "version": "1.1.0"
  },
  {
    "name": "nopt",
    "version": "6.0.0"
  },
  {
    "name": "webidl-conversions",
    "version": "5.0.0"
  },
  {
    "name": "isarray",
    "version": "2.0.5"
  },
  {
    "name": "node-int64",
    "version": "0.4.0"
  },
  {
    "name": "psl",
    "version": "1.9.0"
  },
  {
    "name": "source-list-map",
    "version": "2.0.1"
  },
  {
    "name": "string-natural-compare",
    "version": "3.0.1"
  },
  {
    "name": "type-check",
    "version": "0.3.2"
  },
  {
    "name": "@babel/plugin-syntax-decorators",
    "version": "7.21.0"
  },
  {
    "name": "@types/react",
    "version": "18.0.28"
  },
  {
    "name": "escalade",
    "version": "3.1.1"
  },
  {
    "name": "lz-string",
    "version": "1.4.4"
  },
  {
    "name": "optionator",
    "version": "0.8.3"
  },
  {
    "name": "resolve-url-loader",
    "version": "4.0.0"
  },
  {
    "name": "source-map",
    "version": "0.8.0-beta.0"
  },
  {
    "name": "babel-plugin-polyfill-corejs3",
    "version": "0.6.0"
  },
  {
    "name": "jest-serializer",
    "version": "27.5.1"
  },
  {
    "name": "postcss-reduce-transforms",
    "version": "5.1.0"
  },
  {
    "name": "promise",
    "version": "8.3.0"
  },
  {
    "name": "raf",
    "version": "3.4.1"
  },
  {
    "name": "react-app-polyfill",
    "version": "3.0.0"
  },
  {
    "name": "strip-bom",
    "version": "4.0.0"
  },
  {
    "name": "tslib",
    "version": "2.5.0"
  },
  {
    "name": "@types/prettier",
    "version": "2.7.2"
  },
  {
    "name": "@typescript-eslint/utils",
    "version": "5.54.0"
  },
  {
    "name": "import-fresh",
    "version": "3.3.0"
  },
  {
    "name": "resolve-cwd",
    "version": "3.0.0"
  },
  {
    "name": "@types/istanbul-lib-coverage",
    "version": "2.0.4"
  },
  {
    "name": "is-map",
    "version": "2.0.2"
  },
  {
    "name": "picocolors",
    "version": "0.2.1"
  },
  {
    "name": "signal-exit",
    "version": "3.0.7"
  },
  {
    "name": "domexception",
    "version": "2.0.1"
  },
  {
    "name": "language-tags",
    "version": "1.0.5"
  },
  {
    "name": "@csstools/postcss-trigonometric-functions",
    "version": "1.0.2"
  },
  {
    "name": "crypto-random-string",
    "version": "2.0.0"
  },
  {
    "name": "process-nextick-args",
    "version": "2.0.1"
  },
  {
    "name": "workbox-google-analytics",
    "version": "6.5.4"
  },
  {
    "name": "@csstools/postcss-hwb-function",
    "version": "1.0.2"
  },
  {
    "name": "get-symbol-description",
    "version": "1.0.0"
  },
  {
    "name": "colorette",
    "version": "2.0.19"
  },
  {
    "name": "emojis-list",
    "version": "3.0.0"
  },
  {
    "name": "@babel/plugin-syntax-logical-assignment-operators",
    "version": "7.10.4"
  },
  {
    "name": "@babel/plugin-transform-flow-strip-types",
    "version": "7.21.0"
  },
  {
    "name": "@typescript-eslint/experimental-utils",
    "version": "5.54.0"
  },
  {
    "name": "array.prototype.flatmap",
    "version": "1.3.1"
  },
  {
    "name": "camel-case",
    "version": "4.1.2"
  },
  {
    "name": "color-convert",
    "version": "1.9.3"
  },
  {
    "name": "es-get-iterator",
    "version": "1.1.3"
  },
  {
    "name": "espree",
    "version": "9.4.1"
  },
  {
    "name": "jest-util",
    "version": "29.4.3"
  },
  {
    "name": "loader-utils",
    "version": "2.0.4"
  },
  {
    "name": "path-exists",
    "version": "3.0.0"
  },
  {
    "name": "webpack-dev-middleware",
    "version": "5.3.3"
  },
  {
    "name": "deep-equal",
    "version": "2.2.0"
  },
  {
    "name": "find-up",
    "version": "3.0.0"
  },
  {
    "name": "istanbul-lib-instrument",
    "version": "5.2.1"
  },
  {
    "name": "locate-path",
    "version": "6.0.0"
  },
  {
    "name": "symbol-tree",
    "version": "3.2.4"
  },
  {
    "name": "browserslist",
    "version": "4.21.5"
  },
  {
    "name": "istanbul-lib-source-maps",
    "version": "4.0.1"
  },
  {
    "name": "jest-util",
    "version": "27.5.1"
  },
  {
    "name": "postcss",
    "version": "7.0.39"
  },
  {
    "name": "source-map",
    "version": "0.7.4"
  },
  {
    "name": "@jest/reporters",
    "version": "27.5.1"
  },
  {
    "name": "common-path-prefix",
    "version": "3.0.0"
  },
  {
    "name": "err-code",
    "version": "2.0.3"
  },
  {
    "name": "workbox-core",
    "version": "6.5.4"
  },
  {
    "name": "@babel/plugin-transform-spread",
    "version": "7.20.7"
  },
  {
    "name": "css.escape",
    "version": "1.5.1"
  },
  {
    "name": "inherits",
    "version": "2.0.4"
  },
  {
    "name": "webpack-manifest-plugin",
    "version": "4.1.1"
  },
  {
    "name": "es-shim-unscopables",
    "version": "1.0.0"
  },
  {
    "name": "readable-stream",
    "version": "2.3.8"
  },
  {
    "name": "util.promisify",
    "version": "1.0.1"
  },
  {
    "name": "dot-case",
    "version": "3.0.4"
  },
  {
    "name": "filelist",
    "version": "1.0.4"
  },
  {
    "name": "idb",
    "version": "7.1.1"
  },
  {
    "name": "strip-json-comments",
    "version": "3.1.1"
  },
  {
    "name": "@testing-library/dom",
    "version": "8.20.0"
  },
  {
    "name": "didyoumean",
    "version": "1.2.2"
  },
  {
    "name": "lines-and-columns",
    "version": "1.2.4"
  },
  {
    "name": "@csstools/postcss-ic-unit",
    "version": "1.0.1"
  },
  {
    "name": "@jridgewell/sourcemap-codec",
    "version": "1.4.14"
  },
  {
    "name": "leven",
    "version": "3.1.0"
  },
  {
    "name": "lodash.sortby",
    "version": "4.7.0"
  },
  {
    "name": "retry",
    "version": "0.12.0"
  },
  {
    "name": "jest-worker",
    "version": "26.6.2"
  },
  {
    "name": "@ampproject/remapping",
    "version": "2.2.0"
  },
  {
    "name": "@jest/source-map",
    "version": "27.5.1"
  },
  {
    "name": "has-tostringtag",
    "version": "1.0.0"
  },
  {
    "name": "is-docker",
    "version": "2.2.1"
  },
  {
    "name": "svgo",
    "version": "2.8.0"
  },
  {
    "name": "typed-array-length",
    "version": "1.0.4"
  },
  {
    "name": "@eslint/js",
    "version": "8.35.0"
  },
  {
    "name": "debug",
    "version": "2.6.9"
  },
  {
    "name": "is-glob",
    "version": "4.0.3"
  },
  {
    "name": "jest-each",
    "version": "27.5.1"
  },
  {
    "name": "jest-worker",
    "version": "27.5.1"
  },
  {
    "name": "slash",
    "version": "3.0.0"
  },
  {
    "name": "@babel/plugin-transform-runtime",
    "version": "7.21.0"
  },
  {
    "name": "eslint-scope",
    "version": "5.1.1"
  },
  {
    "name": "humanize-ms",
    "version": "1.2.1"
  },
  {
    "name": "proxy-addr",
    "version": "2.0.7"
  },
  {
    "name": "tailwindcss",
    "version": "3.2.7"
  },
  {
    "name": "whatwg-url",
    "version": "7.1.0"
  },
  {
    "name": "@rollup/plugin-node-resolve",
    "version": "11.2.1"
  },
  {
    "name": "@types/trusted-types",
    "version": "2.0.3"
  },
  {
    "name": "@webassemblyjs/wasm-parser",
    "version": "1.11.1"
  },
  {
    "name": "is-weakmap",
    "version": "2.0.1"
  },
  {
    "name": "shebang-command",
    "version": "2.0.0"
  },
  {
    "name": "string_decoder",
    "version": "1.1.1"
  },
  {
    "name": "babel-plugin-polyfill-regenerator",
    "version": "0.4.1"
  },
  {
    "name": "cosmiconfig",
    "version": "6.0.0"
  },
  {
    "name": "dom-serializer",
    "version": "0.2.2"
  },
  {
    "name": "fresh",
    "version": "0.5.2"
  },
  {
    "name": "postcss-discard-duplicates",
    "version": "5.1.0"
  },
  {
    "name": "postcss-env-function",
    "version": "4.0.6"
  },
  {
    "name": "@svgr/babel-plugin-transform-react-native-svg",
    "version": "5.4.0"
  },
  {
    "name": "@webassemblyjs/ast",
    "version": "1.11.1"
  },
  {
    "name": "chrome-trace-event",
    "version": "1.0.3"
  },
  {
    "name": "postcss-calc",
    "version": "8.2.4"
  },
  {
    "name": "@types/range-parser",
    "version": "1.2.4"
  },
  {
    "name": "eslint-plugin-testing-library",
    "version": "5.10.2"
  },
  {
    "name": "@babel/plugin-transform-react-jsx-development",
    "version": "7.18.6"
  },
  {
    "name": "css-prefers-color-scheme",
    "version": "6.0.3"
  },
  {
    "name": "object-inspect",
    "version": "1.12.3"
  },
  {
    "name": "string-length",
    "version": "5.0.1"
  },
  {
    "name": "throat",
    "version": "6.0.2"
  },
  {
    "name": "object-assign",
    "version": "4.1.1"
  },
  {
    "name": "prelude-ls",
    "version": "1.1.2"
  },
  {
    "name": "@istanbuljs/load-nyc-config",
    "version": "1.1.0"
  },
  {
    "name": "cssesc",
    "version": "3.0.0"
  },
  {
    "name": "cssom",
    "version": "0.3.8"
  },
  {
    "name": "deep-is",
    "version": "0.1.4"
  },
  {
    "name": "fs-extra",
    "version": "9.1.0"
  },
  {
    "name": "has-flag",
    "version": "4.0.0"
  },
  {
    "name": "unique-string",
    "version": "2.0.0"
  },
  {
    "name": "cacache",
    "version": "16.1.3"
  },
  {
    "name": "estraverse",
    "version": "5.3.0"
  },
  {
    "name": "locate-path",
    "version": "3.0.0"
  },
  {
    "name": "@babel/regjsgen",
    "version": "0.8.0"
  },
  {
    "name": "ignore",
    "version": "5.2.4"
  },
  {
    "name": "lilconfig",
    "version": "2.1.0"
  },
  {
    "name": "util-deprecate",
    "version": "1.0.2"
  },
  {
    "name": "babel-loader",
    "version": "8.3.0"
  },
  {
    "name": "escodegen",
    "version": "2.0.0"
  },
  {
    "name": "get-caller-file",
    "version": "2.0.5"
  },
  {
    "name": "is-module",
    "version": "1.0.0"
  },
  {
    "name": "on-finished",
    "version": "2.4.1"
  },
  {
    "name": "pirates",
    "version": "4.0.5"
  },
  {
    "name": "@types/html-minifier-terser",
    "version": "6.1.0"
  },
  {
    "name": "css-tree",
    "version": "1.0.0-alpha.37"
  },
  {
    "name": "depd",
    "version": "2.0.0"
  },
  {
    "name": "postcss-custom-media",
    "version": "8.0.2"
  },
  {
    "name": "@babel/helper-wrap-function",
    "version": "7.20.5"
  },
  {
    "name": "@babel/highlight",
    "version": "7.18.6"
  },
  {
    "name": "@types/estree",
    "version": "0.0.51"
  },
  {
    "name": "@types/graceful-fs",
    "version": "4.1.6"
  },
  {
    "name": "css-what",
    "version": "6.1.0"
  },
  {
    "name": "jest-matcher-utils",
    "version": "27.5.1"
  },
  {
    "name": "postcss-overflow-shorthand",
    "version": "3.0.4"
  },
  {
    "name": "resolve-from",
    "version": "4.0.0"
  },
  {
    "name": "abbrev",
    "version": "1.1.1"
  },
  {
    "name": "ansi-regex",
    "version": "5.0.1"
  },
  {
    "name": "core-js-pure",
    "version": "3.29.0"
  },
  {
    "name": "escape-string-regexp",
    "version": "2.0.0"
  },
  {
    "name": "make-fetch-happen",
    "version": "10.2.1"
  },
  {
    "name": "media-typer",
    "version": "0.3.0"
  },
  {
    "name": "unicode-match-property-ecmascript",
    "version": "2.0.0"
  },
  {
    "name": "@babel/preset-env",
    "version": "7.20.2"
  },
  {
    "name": "env-paths",
    "version": "2.2.1"
  },
  {
    "name": "supports-hyperlinks",
    "version": "2.3.0"
  },
  {
    "name": "@trysound/sax",
    "version": "0.2.0"
  },
  {
    "name": "estree-walker",
    "version": "1.0.1"
  },
  {
    "name": "eventemitter3",
    "version": "4.0.7"
  },
  {
    "name": "harmony-reflect",
    "version": "1.6.2"
  },
  {
    "name": "utila",
    "version": "0.4.0"
  },
  {
    "name": "@babel/preset-typescript",
    "version": "7.21.0"
  },
  {
    "name": "get-stream",
    "version": "6.0.1"
  },
  {
    "name": "@babel/plugin-syntax-bigint",
    "version": "7.8.3"
  },
  {
    "name": "@jest/core",
    "version": "27.5.1"
  },
  {
    "name": "builtin-modules",
    "version": "3.3.0"
  },
  {
    "name": "jest-matcher-utils",
    "version": "29.4.3"
  },
  {
    "name": "@babel/plugin-transform-react-constant-elements",
    "version": "7.20.2"
  },
  {
    "name": "@types/babel__core",
    "version": "7.20.0"
  },
  {
    "name": "eslint-plugin-import",
    "version": "2.27.5"
  },
  {
    "name": "jest-get-type",
    "version": "29.4.3"
  },
  {
    "name": "@babel/plugin-proposal-export-namespace-from",
    "version": "7.18.9"
  },
  {
    "name": "@typescript-eslint/scope-manager",
    "version": "5.54.0"
  },
  {
    "name": "css-loader",
    "version": "6.7.3"
  },
  {
    "name": "http-errors",
    "version": "2.0.0"
  },
  {
    "name": "ms",
    "version": "2.1.2"
  },
  {
    "name": "postcss-dir-pseudo-class",
    "version": "6.0.5"
  },
  {
    "name": "@babel/traverse",
    "version": "7.21.2"
  },
  {
    "name": "ajv-keywords",
    "version": "5.1.0"
  },
  {
    "name": "batch",
    "version": "0.6.1"
  },
  {
    "name": "eslint-webpack-plugin",
    "version": "3.2.0"
  },
  {
    "name": "is-typedarray",
    "version": "1.0.0"
  },
  {
    "name": "jest-diff",
    "version": "29.4.3"
  },
  {
    "name": "@babel/plugin-syntax-top-level-await",
    "version": "7.14.5"
  },
  {
    "name": "ast-types-flow",
    "version": "0.0.7"
  },
  {
    "name": "doctrine",
    "version": "3.0.0"
  },
  {
    "name": "fill-range",
    "version": "7.0.1"
  },
  {
    "name": "htmlparser2",
    "version": "6.1.0"
  },
  {
    "name": "@csstools/selector-specificity",
    "version": "2.1.1"
  },
  {
    "name": "commander",
    "version": "7.2.0"
  },
  {
    "name": "dotenv",
    "version": "10.0.0"
  },
  {
    "name": "promise-retry",
    "version": "2.0.1"
  },
  {
    "name": "require-directory",
    "version": "2.1.1"
  },
  {
    "name": "postcss-colormin",
    "version": "5.3.1"
  },
  {
    "name": "postcss-nesting",
    "version": "10.2.0"
  },
  {
    "name": "postcss-page-break",
    "version": "3.0.4"
  },
  {
    "name": "neo-async",
    "version": "2.6.2"
  },
  {
    "name": "node-forge",
    "version": "1.3.1"
  },
  {
    "name": "@babel/helper-remap-async-to-generator",
    "version": "7.18.9"
  },
  {
    "name": "@jest/types",
    "version": "29.4.3"
  },
  {
    "name": "@types/body-parser",
    "version": "1.19.2"
  },
  {
    "name": "domelementtype",
    "version": "1.3.1"
  },
  {
    "name": "emoji-regex",
    "version": "8.0.0"
  },
  {
    "name": "gensync",
    "version": "1.0.0-beta.2"
  },
  {
    "name": "rimraf",
    "version": "3.0.2"
  },
  {
    "name": "@babel/plugin-proposal-logical-assignment-operators",
    "version": "7.20.7"
  },
  {
    "name": "@svgr/babel-plugin-transform-svg-component",
    "version": "5.5.0"
  },
  {
    "name": "whatwg-mimetype",
    "version": "2.3.0"
  },
  {
    "name": "language-subtag-registry",
    "version": "0.3.22"
  },
  {
    "name": "once",
    "version": "1.4.0"
  },
  {
    "name": "utils-merge",
    "version": "1.0.1"
  },
  {
    "name": "emittery",
    "version": "0.10.2"
  },
  {
    "name": "hoopy",
    "version": "0.1.4"
  },
  {
    "name": "is-typed-array",
    "version": "1.1.10"
  },
  {
    "name": "istanbul-lib-report",
    "version": "3.0.0"
  },
  {
    "name": "jsesc",
    "version": "2.5.2"
  },
  {
    "name": "postcss-normalize-timing-functions",
    "version": "5.1.0"
  },
  {
    "name": "@babel/helper-create-regexp-features-plugin",
    "version": "7.21.0"
  },
  {
    "name": "@babel/plugin-transform-block-scoping",
    "version": "7.21.0"
  },
  {
    "name": "buffer-from",
    "version": "1.1.2"
  },
  {
    "name": "jest-leak-detector",
    "version": "27.5.1"
  },
  {
    "name": "postcss-media-minmax",
    "version": "5.0.0"
  },
  {
    "name": "postcss-normalize-charset",
    "version": "5.1.0"
  },
  {
    "name": "fs.realpath",
    "version": "1.0.0"
  },
  {
    "name": "html-encoding-sniffer",
    "version": "2.0.1"
  },
  {
    "name": "normalize-range",
    "version": "0.1.2"
  },
  {
    "name": "safe-regex-test",
    "version": "1.0.0"
  },
  {
    "name": "stylehacks",
    "version": "5.1.1"
  },
  {
    "name": "ansi-html-community",
    "version": "0.0.8"
  },
  {
    "name": "obuf",
    "version": "1.1.2"
  },
  {
    "name": "postcss-opacity-percentage",
    "version": "1.1.3"
  },
  {
    "name": "es-array-method-boxes-properly",
    "version": "1.0.0"
  },
  {
    "name": "@babel/plugin-transform-member-expression-literals",
    "version": "7.18.6"
  },
  {
    "name": "@types/stack-utils",
    "version": "2.0.1"
  },
  {
    "name": "callsites",
    "version": "3.1.0"
  },
  {
    "name": "@types/resolve",
    "version": "1.17.1"
  },
  {
    "name": "entities",
    "version": "2.2.0"
  },
  {
    "name": "make-dir",
    "version": "3.1.0"
  },
  {
    "name": "@babel/plugin-transform-block-scoped-functions",
    "version": "7.18.6"
  },
  {
    "name": "@nodelib/fs.walk",
    "version": "1.2.8"
  },
  {
    "name": "object-keys",
    "version": "1.1.1"
  },
  {
    "name": "@babel/preset-modules",
    "version": "0.1.5"
  },
  {
    "name": "is-date-object",
    "version": "1.0.5"
  },
  {
    "name": "npm-run-path",
    "version": "4.0.1"
  },
  {
    "name": "redent",
    "version": "3.0.0"
  },
  {
    "name": "sass-loader",
    "version": "12.6.0"
  },
  {
    "name": "@babel/plugin-transform-regenerator",
    "version": "7.20.5"
  },
  {
    "name": "babel-preset-react-app",
    "version": "10.0.1"
  },
  {
    "name": "is-regexp",
    "version": "1.0.0"
  },
  {
    "name": "workbox-sw",
    "version": "6.5.4"
  },
  {
    "name": "@npmcli/fs",
    "version": "2.1.2"
  },
  {
    "name": "cssom",
    "version": "0.4.4"
  },
  {
    "name": "deepmerge",
    "version": "4.3.0"
  },
  {
    "name": "globby",
    "version": "11.1.0"
  },
  {
    "name": "resolve",
    "version": "1.22.1"
  },
  {
    "name": "tmpl",
    "version": "1.0.5"
  },
  {
    "name": "@types/bonjour",
    "version": "3.5.10"
  },
  {
    "name": "css-has-pseudo",
    "version": "3.0.4"
  },
  {
    "name": "strip-final-newline",
    "version": "2.0.0"
  },
  {
    "name": "webidl-conversions",
    "version": "6.1.0"
  },
  {
    "name": "postcss-minify-gradients",
    "version": "5.1.1"
  },
  {
    "name": "postcss-modules-extract-imports",
    "version": "3.0.0"
  },
  {
    "name": "react-dom",
    "version": "18.2.0"
  },
  {
    "name": "unbox-primitive",
    "version": "1.0.2"
  },
  {
    "name": "unicode-match-property-value-ecmascript",
    "version": "2.1.0"
  },
  {
    "name": "walker",
    "version": "1.0.8"
  },
  {
    "name": "is-shared-array-buffer",
    "version": "1.0.2"
  },
  {
    "name": "jest-regex-util",
    "version": "27.5.1"
  },
  {
    "name": "@svgr/webpack",
    "version": "5.5.0"
  },
  {
    "name": "@types/babel__generator",
    "version": "7.6.4"
  },
  {
    "name": "axobject-query",
    "version": "3.1.1"
  },
  {
    "name": "domutils",
    "version": "2.8.0"
  },
  {
    "name": "electron-to-chromium",
    "version": "1.4.318"
  },
  {
    "name": "error-stack-parser",
    "version": "2.1.4"
  },
  {
    "name": "@types/ws",
    "version": "8.5.4"
  },
  {
    "name": "commander",
    "version": "8.3.0"
  },
  {
    "name": "lodash.memoize",
    "version": "4.1.2"
  },
  {
    "name": "object-is",
    "version": "1.1.5"
  },
  {
    "name": "accepts",
    "version": "1.3.8"
  },
  {
    "name": "cssnano-preset-default",
    "version": "5.2.14"
  },
  {
    "name": "path-parse",
    "version": "1.0.7"
  },
  {
    "name": "postcss-preset-env",
    "version": "7.8.3"
  },
  {
    "name": "require-from-string",
    "version": "2.0.2"
  }
]
