{
  "bomFormat": "CycloneDX",
  "specVersion": "1.4",
  "serialNumber": "urn:uuid:89044104-2798-4416-bcba-7b14d2ccf969",
  "version": 1,
  "metadata": {
    "timestamp": "2023-05-01T21:46:24Z",
    "tools": [
      {
        "vendor": "GitLab",
        "name": "Gemnasium",
        "version": "4.0.0-rc.3"
      }
    ],
    "authors": [
      {
        "name": "GitLab",
        "email": "support@gitlab.com"
      }
    ],
    "properties": [
      {
        "name": "gitlab:dependency_scanning:input_file:path",
        "value": "Pipfile"
      },
      {
        "name": "gitlab:dependency_scanning:package_manager:name",
        "value": "pipenv"
      },
      {
        "name": "gitlab:meta:schema_version",
        "value": "1"
      }
    ]
  },
  "components": [
    {
      "name": "Django",
      "version": "1.11.3",
      "purl": "pkg:pypi/Django@1.11.3",
      "type": "library",
      "bom-ref": "pkg:pypi/Django@1.11.3"
    },
    {
      "name": "atomicwrites",
      "version": "1.4.1",
      "purl": "pkg:pypi/atomicwrites@1.4.1",
      "type": "library",
      "bom-ref": "pkg:pypi/atomicwrites@1.4.1"
    },
    {
      "name": "attrs",
      "version": "23.1.0",
      "purl": "pkg:pypi/attrs@23.1.0",
      "type": "library",
      "bom-ref": "pkg:pypi/attrs@23.1.0"
    },
    {
      "name": "docutils",
      "version": "0.13.1",
      "purl": "pkg:pypi/docutils@0.13.1",
      "type": "library",
      "bom-ref": "pkg:pypi/docutils@0.13.1"
    },
    {
      "name": "more-itertools",
      "version": "9.1.0",
      "purl": "pkg:pypi/more-itertools@9.1.0",
      "type": "library",
      "bom-ref": "pkg:pypi/more-itertools@9.1.0"
    },
    {
      "name": "pluggy",
      "version": "1.0.0",
      "purl": "pkg:pypi/pluggy@1.0.0",
      "type": "library",
      "bom-ref": "pkg:pypi/pluggy@1.0.0"
    },
    {
      "name": "py",
      "version": "1.11.0",
      "purl": "pkg:pypi/py@1.11.0",
      "type": "library",
      "bom-ref": "pkg:pypi/py@1.11.0"
    },
    {
      "name": "pytest",
      "version": "3.10.1",
      "purl": "pkg:pypi/pytest@3.10.1",
      "type": "library",
      "bom-ref": "pkg:pypi/pytest@3.10.1"
    },
    {
      "name": "pytz",
      "version": "2023.3",
      "purl": "pkg:pypi/pytz@2023.3",
      "type": "library",
      "bom-ref": "pkg:pypi/pytz@2023.3"
    },
    {
      "name": "requests",
      "version": "2.5.3",
      "purl": "pkg:pypi/requests@2.5.3",
      "type": "library",
      "bom-ref": "pkg:pypi/requests@2.5.3"
    },
    {
      "name": "setuptools",
      "version": "67.7.2",
      "purl": "pkg:pypi/setuptools@67.7.2",
      "type": "library",
      "bom-ref": "pkg:pypi/setuptools@67.7.2"
    },
    {
      "name": "six",
      "version": "1.16.0",
      "purl": "pkg:pypi/six@1.16.0",
      "type": "library",
      "bom-ref": "pkg:pypi/six@1.16.0"
    }
  ]
}
